{
"meta":{"test_sets":[],"test_metrics":[],"learn_metrics":[{"best_value":"Min","name":"MultiClass"}],"launch_mode":"Train","parameters":"","iteration_count":1000,"learn_sets":["learn"],"name":"experiment"},
"iterations":[
{"learn":[1.042932297],"iteration":0,"passed_time":1.15794466,"remaining_time":1156.786716},
{"learn":[0.9938379017],"iteration":1,"passed_time":1.957720955,"remaining_time":976.9027564,,
{"learn":[0.9528788806],"iteration":2,"passed_time":2.772531044,"remaining_time":921.4044836,,
{"learn":[0.9155545273],"iteration":3,"passed_time":3.579766956,"remaining_time":891.361972},
{"learn":[0.8832470775],"iteration":4,"passed_time":4.425452927,"remaining_time":880.6651324,,
{"learn":[0.8567097788],"iteration":5,"passed_time":5.242035431,"remaining_time":868.4305364,,
{"learn":[0.8319932412],"iteration":6,"passed_time":6.011275656,"remaining_time":852.742389,
,
{"learn":[0.8103727947],"iteration":7,"passed_time":6.670652219,"remaining_time":827.1608,
{",
{"learn":[0.7910407165],"iteration":8,"passed_time":7.392992349,"remaining_time":814.0506,
{,
{"learn":[0.7731405617],"iteration":9,"passed_time":7.967777807,"remaining_time":788.810,
{"l,
{"learn":[0.7590468578],"iteration":10,"passed_time":8.657641035,"remaining_time":778.400,
{"l,
{"learn":[0.7434695031],"iteration":11,"passed_time":9.404738956,"remaining_time":774.32,
{"le,
{"learn":[0.7293083332],"iteration":12,"passed_time":10.06068202,"remaining_time":763.8,
{"lea,
{"learn":[0.7173178436],"iteration":13,"passed_time":10.72822671,"remaining_time":755.,
{"learn":[0.7133397731],"iteration":14,"passed_time":11.42403158,"remaining_time":750.1780737},
{"learn":[0.7029640146],"iteration":15,"passed_time":12.20165979,"remaining_time":750.4020772},
{"learn":[0.695779818],"iteration":16,"passed_time":12.92017917,"remaining_time":747.0903605},
{"learn":[0.6865905328],"iteration":17,"passed_time":13.61134197,"remaining_time":742.574323},
{"learn":[0.6784528403],"iteration":18,"passed_time":14.2716365,"remaining_time":736.8671264},
{"learn":[0.6719698509],"iteration":19,"passed_time":14.86325094,"remaining_time":728.299296},
{"learn":[0.6665099778],"iteration":20,"passed_time":15.65781118,"remaining_time":729.9522449},
{"learn":[0.659556266],"iteration":21,"passed_time":16.20755817,"remaining_time":720.4996316},
{"learn":[0.6545741303],"iteration":22,"passed_time":16.96784169,"remaining_time":720.7644056},
{"learn":[0.6479756221],"iteration":23,"passed_time":17.63489453,"remaining_time":717.1523775},
{"learn":[0.643406478],"iteration":24,"passed_time":18.14232539,"remaining_time":707.5506903},
{"learn":[0.6368401511],"iteration":25,"passed_time":18.92132905,"remaining_time":708.822096},
{"learn":[0.6310212014],"iteration":26,"passed_time":19.65204036,"remaining_time":708.2013064},
{"learn":[0.625293035],"iteration":27,"passed_time":20.34827685,"remaining_time":706.3758963},
{"learn":[0.6216493683],"iteration":28,"passed_time":20.94083368,"remaining_time":701.1568793},
{"learn":[0.61601073],"iteration":29,"passed_time":21.67464732,"remaining_time":700.8135966},
{"learn":[0.6123522638],"iteration":30,"passed_time":22.58898916,"remaining_time":706.0880806},
{"learn":[0.6056340847],"iteration":31,"passed_time":23.51266694,"remaining_time":711.2581748},
{"learn":[0.6011722923],"iteration":32,"passed_time":24.09191241,"remaining_time":705.9660396},
{"learn":[0.5985365669],"iteration":33,"passed_time":24.79039439,"remaining_time":704.3388523},
{"learn":[0.593895903],"iteration":34,"passed_time":25.37862842,"remaining_time":699.7250407},
{"learn":[0.5908291179],"iteration":35,"passed_time":26.14380789,"remaining_time":700.0730778},
{"learn":[0.5861471185],"iteration":36,"passed_time":26.82400538,"remaining_time":698.149113},
{"learn":[0.5817961427],"iteration":37,"passed_time":27.42628519,"remaining_time":694.318062},
{"learn":[0.5783663288],"iteration":38,"passed_time":28.20395298,"remaining_time":694.9743285},
{"learn":[0.5742253534],"iteration":39,"passed_time":28.834468,"remaining_time":692.0272319},
{"learn":[0.5714014383],"iteration":40,"passed_time":29.55093306,"remaining_time":691.2035318},
{"learn":[0.5687376152],"iteration":41,"passed_time":30.46494507,"remaining_time":694.8908899},
{"learn":[0.566428096],"iteration":42,"passed_time":31.06852696,"remaining_time":691.4553558},
{"learn":[0.5622952294],"iteration":43,"passed_time":31.86853092,"remaining_time":692.4162627},
{"learn":[0.5612500255],"iteration":44,"passed_time":32.63819533,"remaining_time":692.6550343},
{"learn":[0.5599507371],"iteration":45,"passed_time":33.21580739,"remaining_time":688.8669619},
{"learn":[0.5583906271],"iteration":46,"passed_time":34.03900056,"remaining_time":690.195054},
{"learn":[0.5569034364],"iteration":47,"passed_time":34.59115336,"remaining_time":686.057875},
{"learn":[0.5537496788],"iteration":48,"passed_time":35.14982213,"remaining_time":682.1934866},
{"learn":[0.5511239981],"iteration":49,"passed_time":35.77497946,"remaining_time":679.7246097},
{"learn":[0.5490000636],"iteration":50,"passed_time":36.37950922,"remaining_time":676.9442009},
{"learn":[0.5465965679],"iteration":51,"passed_time":37.05821316,"remaining_time":675.5997323},
{"learn":[0.54531489],"iteration":52,"passed_time":37.69025877,"remaining_time":673.4466992},
{"learn":[0.5431234041],"iteration":53,"passed_time":38.3903635,"remaining_time":672.5422939},
{"learn":[0.5415082421],"iteration":54,"passed_time":39.17050902,"remaining_time":673.020564},
{"learn":[0.5399518124],"iteration":55,"passed_time":39.76602557,"remaining_time":670.3415739},
{"learn":[0.5379627827],"iteration":56,"passed_time":40.3457545,"remaining_time":667.4744998},
{"learn":[0.5355638094],"iteration":57,"passed_time":41.0253494,"remaining_time":666.3082609},
{"learn":[0.5340404634],"iteration":58,"passed_time":41.66378728,"remaining_time":664.5020988},
{"learn":[0.5310303401],"iteration":59,"passed_time":42.33190958,"remaining_time":663.1999168},
{"learn":[0.5287689855],"iteration":60,"passed_time":43.05149951,"remaining_time":662.7107875},
{"learn":[0.5270758977],"iteration":61,"passed_time":43.70813758,"remaining_time":661.2618234},
{"learn":[0.5253695366],"iteration":62,"passed_time":44.32450181,"remaining_time":659.239019},
{"learn":[0.5233164738],"iteration":63,"passed_time":45.1384398,"remaining_time":660.1496821},
{"learn":[0.5219757667],"iteration":64,"passed_time":45.83376982,"remaining_time":659.3011505},
{"learn":[0.5201096582],"iteration":65,"passed_time":46.38930593,"remaining_time":656.4789657},
{"learn":[0.5181737037],"iteration":66,"passed_time":46.96857034,"remaining_time":654.0548675},
{"learn":[0.5161855371],"iteration":67,"passed_time":47.60746476,"remaining_time":652.5023112},
{"learn":[0.5141817399],"iteration":68,"passed_time":48.30946318,"remaining_time":651.8276843},
{"learn":[0.513071449],"iteration":69,"passed_time":48.80019436,"remaining_time":648.3454394},
{"learn":[0.5113503651],"iteration":70,"passed_time":49.55502168,"remaining_time":648.4030302},
{"learn":[0.5085666119],"iteration":71,"passed_time":50.20175359,"remaining_time":647.044824},
{"learn":[0.506573719],"iteration":72,"passed_time":50.90206098,"remaining_time":646.3864456},
{"learn":[0.5046708745],"iteration":73,"passed_time":51.63423452,"remaining_time":646.1256915},
{"learn":[0.5033066256],"iteration":74,"passed_time":52.44092542,"remaining_time":646.7714136},
{"learn":[0.5017911683],"iteration":75,"passed_time":52.96140667,"remaining_time":643.8992074},
{"learn":[0.5005851764],"iteration":76,"passed_time":53.62007015,"remaining_time":642.7444773},
{"learn":[0.4991821772],"iteration":77,"passed_time":54.19896476,"remaining_time":640.6595578},
{"learn":[0.4971917894],"iteration":78,"passed_time":54.85606306,"remaining_time":639.524482},
{"learn":[0.4959890314],"iteration":79,"passed_time":55.63813476,"remaining_time":639.8385498},
{"learn":[0.4945697829],"iteration":80,"passed_time":56.05587951,"remaining_time":635.9920157},
{"learn":[0.4925337169],"iteration":81,"passed_time":56.72655142,"remaining_time":635.060661},
{"learn":[0.4909877812],"iteration":82,"passed_time":57.30506237,"remaining_time":633.1173758},
{"learn":[0.4887732312],"iteration":83,"passed_time":57.92219053,"remaining_time":631.6276967},
{"learn":[0.4878010415],"iteration":84,"passed_time":58.64827114,"remaining_time":631.3313893},
{"learn":[0.4858837797],"iteration":85,"passed_time":59.32485822,"remaining_time":630.4990745},
{"learn":[0.4836210815],"iteration":86,"passed_time":60.05209776,"remaining_time":630.2018994},
{"learn":[0.4821056188],"iteration":87,"passed_time":60.7775688,"remaining_time":629.8766221},
{"learn":[0.481256143],"iteration":88,"passed_time":61.39249841,"remaining_time":628.4108545},
{"learn":[0.4800966756],"iteration":89,"passed_time":62.0066148,"remaining_time":626.9557719},
{"learn":[0.4778021145],"iteration":90,"passed_time":62.5305966,"remaining_time":624.6188166},
{"learn":[0.4765524842],"iteration":91,"passed_time":63.20638095,"remaining_time":623.819499},
{"learn":[0.4748434626],"iteration":92,"passed_time":63.80685566,"remaining_time":622.2883665},
{"learn":[0.4735961298],"iteration":93,"passed_time":64.51722259,"remaining_time":621.8362092},
{"learn":[0.4724449776],"iteration":94,"passed_time":65.14076362,"remaining_time":620.551485},
{"learn":[0.4701724354],"iteration":95,"passed_time":65.69294533,"remaining_time":618.6085685},
{"learn":[0.469042615],"iteration":96,"passed_time":66.39560907,"remaining_time":618.0952061},
{"learn":[0.466657652],"iteration":97,"passed_time":66.7814044,"remaining_time":614.6614976},
{"learn":[0.4650237542],"iteration":98,"passed_time":67.43894685,"remaining_time":613.7625364},
{"learn":[0.4637782731],"iteration":99,"passed_time":68.06620022,"remaining_time":612.595802},
{"learn":[0.4613992,
{"learn":[0.4622878692],"iteration":100,"passed_time":68.07983784,"remaini,
{"learn":[0.4597838391],"iteration":101,"passed_time":69.47303199,"remaining_time":611.6351248},
{"learn":[0.4584830672],"iteration":102,"passed_time":69.99983989,"remaining_time":609.6102562},
{"learn":[0.4562557841],"iteration":103,"passed_time":70.6249779,"remaining_time":608.4613481},
{"learn":[0.4554241997],"iteration":104,"passed_time":71.2468921,"remaining_time":607.2949374},
{"learn":[0.4537057549],"iteration":105,"passed_time":72.01403509,"remaining_time":607.3636545},
{"learn":[0.4516822819],"iteration":106,"passed_time":72.73549658,"remaining_time":607.0354995},
{"learn":[0.4507816439],"iteration":107,"passed_time":73.41279096,"remaining_time":606.3352735},
{"learn":[0.4490776665],"iteration":108,"passed_time":74.00369154,"remaining_time":604.9292584},
{"learn":[0.4475118723],"iteration":109,"passed_time":74.61167948,"remaining_time":603.6763158},
{"learn":[0.446039302],"iteration":110,"passed_time":75.36534517,"remaining_time":603.6017284},
{"learn":[0.4449086715],"iteration":111,"passed_time":75.95116705,"remaining_time":602.1842531},
{"learn":[0.4434238293],"iteration":112,"passed_time":76.70745339,"remaining_time":602.1195678},
{"learn":[0.441643936],"iteration":113,"passed_time":77.43759177,"remaining_time":601.839529},
{"learn":[0.4393902464],"iteration":114,"passed_time":77.96417968,"remaining_time":599.9852089},
{"learn":[0.4377981121],"iteration":115,"passed_time":78.60378923,"remaining_time":599.0150835},
{"learn":[0.4362231847],"iteration":116,"passed_time":79.26482793,"remaining_time":598.2123339},
{"learn":[0.4347805691],"iteration":117,"passed_time":80.1084399,"remaining_time":598.776644},
{"learn":[0.4327005426],"iteration":118,"passed_time":80.79644631,"remaining_time":598.1652874},
{"learn":[0.4314323271],"iteration":119,"passed_time":81.28861301,"remaining_time":596.1164954},
{"learn":[0.4300812998],"iteration":120,"passed_time":81.85455664,"remaining_time":594.6293825},
{"learn":[0.4286979052],"iteration":121,"passed_time":82.49641787,"remaining_time":593.7037286},
{"learn":[0.4272514765],"iteration":122,"passed_time":83.22066572,"remaining_time":593.3701125},
{"learn":[0.4247522002],"iteration":123,"passed_time":83.88851414,"remaining_time":592.6317612},
{"learn":[0.4234788418],"iteration":124,"passed_time":84.53746947,"remaining_time":591.7622863},
{"learn":[0.421580752],"iteration":125,"passed_time":85.31659791,"remaining_time":591.7992585},
{"learn":[0.4205166727],"iteration":126,"passed_time":85.99328059,"remaining_time":591.119165},
{"learn":[0.4188756703],"iteration":127,"passed_time":86.5286997,"remaining_time":589.4767667},
{"learn":[0.4174618527],"iteration":128,"passed_time":87.1905242,"remaining_time":588.7050122},
{"learn":[0.4152243918],"iteration":129,"passed_time":87.85287483,"remaining_time":587.93847},
{"learn":[0.414067,
{"learn":[0.4222826918],"iteration":130,"passed_time":88.91166344,"remainin,
{"learn":[0.412922,
{"learn":[0.4209181275],"iteration":131,"passed_time":89.58012173,"remaini,
{"learn":[0.4111996,
{"learn":[0.4196061357],"iteration":132,"passed_time":90.24407204,"remaini,
{"learn":[0.4101016,
{"learn":[0.4180121375],"iteration":133,"passed_time":90.9167229,"remainin,
{"learn":[0.408945,
{"learn":[0.4165085074],"iteration":134,"passed_time":91.57993296,"remainin,
{"learn":[0.408072,
{"learn":[0.415539704],"iteration":135,"passed_time":92.22306311,"remaining,
{"learn":[0.4070,
{"learn":[0.4136377592],"iteration":136,"passed_time":92.82320699,"remainin,
{"learn":[0.406152,
{"learn":[0.4123494292],"iteration":137,"passed_time":93.42168546,"remainin,
{"learn":[0.404940,
{"l,
{"learn":[0.4071947982],"iteration":138,"passed_time":92.75192657,"rem,
{"learn":[0.403973,
{"l,
{"learn":[0.4062158412],"iteration":139,"passed_time":93.40020334,"rem,
{"learn":[0.402549,
{"l,
{"learn":[0.4046612091],"iteration":140,"passed_time":94.03005828,"rem,
{"learn":[0.402041,
{"l,
{"learn":[0.4037395343],"iteration":141,"passed_time":94.67460298,"rem,
{"learn":[0.40091,
{"le,
{"learn":[0.4030435478],"iteration":142,"passed_time":95.39900006,"rem,
{"learn":[0.3995,
{"lea,
{"learn":[0.4014811839],"iteration":143,"passed_time":96.10182687,"remaining_time":571.2,
{"lea,
{"learn":[0.4001053437],"iteration":144,"passed_time":96.74440786,"rem,
{"learn":[0.3975,
{"le,
{"learn":[0.3990373802],"iteration":145,"passed_time":97.29155414,"rema,
{"learn":[0.3,
{"learn,
{"learn":[0.3979316264],"iteration":146,"passed_time":97.91665874,"rem,
{"learn":[0.39,
{"learn,
{"learn":[0.3970562627],"iteration":147,"passed_time":98.50429681,"rem,
{"learn":[0.39,
{"learn,
{"learn":[0.3953477052],"iteration":148,"passed_time":99.16444709,"re,
{"learn":,
{",
{"learn":,
{"learn":[0.3941733324],"iteration":149,"passed_time":99.83968967,"re,
{"learn":,
{",
{"learn":,
{"learn":[0.3929403569],"iteration":150,"passed_time":100.5031263,"re,
{"learn":,
{",
{"learn":,
{"learn":[0.3915560607],"iteration":151,"passed_time":101.1901613,"re,
{"learn":,
{",
{"learn":,
{"learn":[0.390425032],"iteration":152,"passed_time":101.9379527,"rem,
{"learn":,
{",
{"learn",
{"learn":[0.3893426836],"iteration":153,"passed_time":102.6473084,"remaining_time,
{",
{"learn",
{"learn":[0.3884849795],"iteration":154,"passed_time":103.3868096,"remaining_time":5,
{"learn":,
{"learn":[0.387269108],"iteration":155,"passed_time":104.1702453,"remaining_time":5,
{"learn":,
{"learn":[0.3863253004],"iteration":156,"passed_time":104.7841561,"rema,
{"learn":[,
{"learn":[,
{"learn":[0.3850920515],"iteration":157,"passed_time":105.548735,"re,
{"learn":[0.,
{"learn":[,
{"learn":[0.383477001],"iteration":158,"passed_time":106.1920742,"re,
{"learn":[0.3,
{"learn":,
{"learn":[0.3827644017],"iteration":159,"passed_time":106.9096218,"re,
{"learn":[0.3,
{"learn":,
{"learn":[0.3814668629],"iteration":160,"passed_time":107.3357481,"re,
{"learn":[0.3811573127],,
{"learn":[0.3804916048],"iteration":161,"passed_time":107.9654029,",
{"learn":[0.3795550446],"i,
{"learn":[0.3794884925],"iteration":162,"passed_time":108.5926397,,
{"learn":[0.3785432399],"it,
{"learn":[0.3783240867],"iteration":163,"passed_time":109.3272196,,
{"learn":[0.3773497462],"it,
{"learn":[0.377724717],"iteration":164,"passed_time":110.053051,"r,
{"learn":[0.3764833403],",
{"learn":[0.3758555165],"iteration":165,"passed_time":110.8184589,"r,
{"learn":[0.3753649068],,
{"learn":[0.374967487],"iteration":166,"passed_time":111.5868185,"rem,
{"learn":[0.3744151837],
{"learn":[0.3734389334],"iteration":167,"passed_time":112.3523865,"re,
{"learn":[0.3735916511],,
{"learn":[0.3722219068],"iteration":168,"passed_time":113.0122734,"re,
{"learn":[0.372572035],",
{"learn":[0.3706496474],"iteration":169,"passed_time":113.7424096,",
{"learn":[0.3710160922],"i,
{"learn":[0.3697520601],"iteration":170,"passed_time":114.4382354,",
{"learn":[0.370324247],"it,
{"learn":[0.3685156167],"iteration":171,"passed_time":114.9098219,,
{"learn":[0.3696478526],"it,
{"learn":[0.3677063344],"iteration":172,"passed_time":115.7219333,,
{"learn":[0.3689479767],"it,
{"learn":[0.3668704978],"iteration":173,"passed_time":116.4259329,
{"learn":[0.3681652672],"ite,
{"learn":[0.3652251249],"iteration":174,"passed_time":117.1553663,
{"learn":[0.3677046867],"ite,
{"learn":[0.3642019568],"iteration":175,"passed_time":117.9205646,"remaining_time":552.0826433},
{"learn":[0.3636435922],"iteration":176,"passed_time":118.5642774,"remaining_time":551.290397},
{"learn":[0.3627030202],"iteration":177,"passed_time":119.2486521,"remaining_time":550.6875958},
{"learn":[0.3614943777],"iteration":178,"passed_time":119.9445001,"remaining_time":550.1365058},
{"learn":[0.3608497851],"iteration":179,"passed_time":120.6024489,"remaining_time":549.4111563},
{"learn":[0.3597213874],"iteration":180,"passed_time":121.3392598,"remaining_time":549.043391},
{"learn":[0.3591716023],"iteration":181,"passed_time":122.1385802,"remaining_time":548.95252},
{"learn":[0.3580766957],"iteration":182,"passed_time":122.7357749,"remaining_time":547.9515196},
{"learn":[0.3570484279],"iteration":183,"passed_time":123.3454329,"remaining_time":547.0101809},
{"learn":[0.3561162286],"iteration":184,"passed_time":124.033418,"remaining_time":546.4174901},
{"learn":[0.3556628041],"iteration":185,"passed_time":124.8496164,"remaining_time":546.3848804},
{"learn":[0.3550380238],"iteration":186,"passed_time":125.5497891,"remaining_time":545.8394575},
{"learn":[0.3540144399],"iteration":187,"passed_time":126.0638693,"remaining_time":544.4886269},
{"learn":[0.3530717438],"iteration":188,"passed_time":126.712768,"remaining_time":543.7251577},
{"learn":[0.3519811419],"iteration":189,"passed_time":127.3502578,"remaining_time":542.9142568},
{"learn":[0.3508831586],"iteration":190,"passed_time":127.990802,"remaining_time":542.1181091},
{"learn":[0.3500649269],"iteration":191,"passed_time":128.570923,
{"learn":[0.3505145323],"iter,
{"learn":[0.3494791992],"iteration":192,"passed_time":129.24170,
{"learn":[0.3495175593],"itera,
{"learn":[0.3488678748],"iteration":193,"passed_time":129.9038586,"remaining_time":539.7036601},
{"learn":[0.3475393746],"iteration":194,"passed_time":130.4317,
{"learn":[0.3474713026],"iterat,
{"learn":[0.3465182088],"iteration":195,"passed_time":131.0658,
{"learn":[0.3468844428],"iter,
{"learn":[0.3458300875],"iteration":196,"passed_time":131.7490268,"remaining_time":537.0277591},
{"learn":[0.3453392321],"iteration":197,"passed_time":132.3272,
{"learn":[0.3451386111],"iterat,
{"learn":[0.3444800615],"iteration":198,"passed_time":132.9169,
{"learn":[0.3444995872],"iterat,
{"learn":[0.3430042934],"iteration":199,"passed_time":133.6790,
{"learn":[0.3431664449],"iterat,
{"learn":[0.3424958705],"iteration":200,"passed_time":134.3452,
{"learn":[0.3423837737],"itera,
{"learn":[0.3418084103],"iteration":201,"passed_time":134.87395,
{"learn":[0.3412990568],"itera,
{"learn":[0.3402965355],"iteration":202,"passed_time":135.62205,
{"learn":[0.3402783615],"itera,
{"learn":[0.3395780427],"iteration":203,"passed_time":136.22412,
{"learn":[0.3395513473],"itera,
{"learn":[0.3387454637],"iteration":204,"passed_time":136.76488,
{"learn":[0.3387953826],"itera,
{"learn":[0.3376223919],"iteration":205,"passed_time":137.45549,
{"learn":[0.3376584226],"iter,
{"learn":[0.3364847113],"iteration":206,"passed_time":137.98707,
{"learn":[0.3371486204],"iter,
{"learn":[0.3359153004],"iteration":207,"passed_time":138.560985,
{"learn":[0.3362524247],"ite,
{"learn":[0.3350374852],"iteration":208,"passed_time":139.0283884,
{"learn":[0.3351777857],"ite,
{"learn":[0.3335279809],"iteration":209,"passed_time":139.6285716,
{"learn":[0.3348315843],"ite,
{"learn":[0.3327473078],"iteration":210,"passed_time":140.2702092,
{"learn":[0.3343410871],"iteration":211,"passed_time":142.2417731,"remaining_time":528.7099866},
{"learn":[0.333300879],"iteration":212,"passed_time":142.8562128,"remaining_time":527.8302321},
{"learn":[0.3324973876],"iteration":213,"passed_time":143.3909732,"remaining_time":526.6603036},
{"learn":[0.3318021435],"iteration":214,"passed_time":144.0406097,"remaining_time":525.9157143},
{"learn":[0.3309951619],"iteration":215,"passed_time":144.6975049,"remaining_time":525.1983512},
{"learn":[0.3301985756],"iteration":216,"passed_time":145.2693348,"remaining_time":524.1746042},
{"learn":[0.3296117743],"iteration":217,"passed_time":145.8743455,"remaining_time":523.2740282},
{"learn":[0.328874054],"iteration":218,"passed_time":146.4764356,"remaining_time":522.3657362},
{"learn":[0.3281731507],"iteration":219,"passed_time":147.0719912,"remaining_time":521.4370595},
{"learn":[0.3273112834],,
{"learn":[0.3252748317],"iteration":220,"passed_time":146.5344776,",
{"learn":[0.3267892918],"i,
{"learn":[0.3248839713],"iteration":221,"passed_time":147.231494,"r,
{"learn":[0.3263341119],",
{"learn":[0.3240713756],"iteration":222,"passed_time":147.7313319,"r,
{"learn":[0.3257988313],",
{"learn":[0.3234046506],"iteration":223,"passed_time":148.3911617,",
{"learn":[0.3249931396],"i,
{"learn":[0.3225595089],"iteration":224,"passed_time":148.9704043,",
{"learn":[0.3243289521],"i,
{"learn":[0.32152178],"iteration":225,"passed_time":149.5073645,"re,
{"learn":[0.3236204085],,
{"learn":[0.3208261114],"iteration":226,"passed_time":150.1501827,"re,
{"learn":[0.3223150673],,
{"learn":[0.320164166],"iteration":227,"passed_time":150.8439753,"rem,
{"learn":[0.3217334361],
{"learn":[0.3192431544],"iteration":228,"passed_time":151.3400143,"rem,
{"learn":[0.3210402519],
{"learn":[0.3185380668],"iteration":229,"passed_time":151.9694352,"rem,
{"learn":[0.3200997857],
{"learn":[0.3176598017],"iteration":230,"passed_time":152.6309437,"rem,
{"learn":[0.3195646955],
{"learn":[0.3172506519],"iteration":231,"passed_time":153.1378947,"rem,
{"learn":[0.3189741498],
{"learn":[0.3167005683],"iteration":232,"passed_time":153.6615669,"rem,
{"learn":[0.3181677562],
{"learn":[0.3162539434],"iteration":233,"passed_time":154.3191461,"rem,
{"learn":[0.3177315533],"iteration":234,"passed_time":156.0459103,"remaining_time":507.9792399},
{"learn":[0.317196395],"iteration":235,"passed_time":156.6212097,"remaining_time":507.027984},
{"learn":[0.3163631798],"iteration":236,"passed_time":157.1009472,"remaining_time":505.7722479},
{"learn":[0.3155781199],"iteration":237,"passed_time":157.830427,"remaining_time":505.3226276},
{"learn":[0.3148022162],"iteration":238,"passed_time":158.4430511,"remaining_time":504.4985852},
{"learn":[0.3143336014],"iteration":239,"passed_time":158.9961127,"remaining_time":503.4876902},
{"learn":[0.3136286353],"iteration":240,"passed_time":159.5744971,"remaining_time":502.5603456},
{"learn":[0.3133476574],"iteration":241,"passed_time":160.1460661,"remaining_time":501.6145375},
{"learn":[0.3129908592],"iteration":242,"passed_time":160.8752566,"remaining_time":501.1628363},
{"learn":[0.3123858442],"iteration":243,"passed_time":161.4444519,"remaining_time":500.2131378},
{"learn":[0.3118435204],"iteration":244,"passed_time":161.9967102,"remaining_time":499.2143519},
{"learn":[0.3113382075],"iteration":245,"passed_time":162.6055973,"remaining_time":498.3927657},
{"learn":[0.3108136321],"iteration":246,"passed_time":163.2161171,"remaining_time":497.5778792},
{"learn":[0.3098942279],"iteration":247,"passed_time":163.7507537,"remaining_time":496.5345434},
{"learn":[0.3095620225],"iteration":248,"passed_time":164.3094144,"remaining_time":495.5677518},
{"learn":[0.3085626468],"iteration":249,"passed_time":165.0088061,"remaining_time":495.0264183},
{"learn":[0.3075506057],"iteration":250,"passed_time":165.6766736,"remaining_time":494.3897549},
{"learn":[0.3065746516],"iteration":251,"passed_time":166.1480952,"remaining_time":493.1697429},
{"learn":[0.306045797],"iteration":252,"passed_time":166.8112921,"remaining_time":492.5218784},
{"learn":[0.3050636739],"iteration":253,"passed_time":167.4880154,"remaining_time":491.9136201},
{"learn":[0.3045653613],"iteration":254,"passed_time":168.154909,"remaining_time":491.2761068},
{"learn":[0.3037366059],"iteration":255,"passed_time":168.8516325,"remaining_time":490.725057},
{"learn":[0.3030909516],"iteration":256,"passed_time":169.435634,"remaining_time":489.8469886},
{"learn":[0.302395979],"iteration":257,"passed_time":170.0109357,"remaining_time":488.9461793},
{"learn":[0.3020248988],"iteration":258,"passed_time":170.7721694,"remaining_time":488.5798359},
{"learn":[0.3015198191],"iteration":259,"passed_time":171.2912822,"remaining_time":487.5213415},
{"learn":[0.3011380957],"iteration":260,"passed_time":171.8220195,"remaining_time":486.4998944},
{"learn":[0.3004685615],"iteration":261,"passed_time":172.40987,"remaining_time":485.643069},
{"learn":[0.299722166],"iteration":262,"passed_time":173.0714822,"remaining_time":484.9949899},
{"learn":[0.2992806108],"iteration":263,"passed_time":173.6310733,"remaining_time":484.0623862},
{"learn":[0.2988019034],"iteration":264,"passed_time":174.2340511,"remaining_time":483.2529343},
{"learn":[0.2977307357],"iteration":265,"passed_time":174.8351216,"remaining_time":482.4397717},
{"learn":[0.2970835217],"iteration":266,"passed_time":175.4308663,"remaining_time":481.6135768},
{"learn":[0.2963945439],"iteration":267,"passed_time":176.1115555,"remaining_time":481.0211143},
{"learn":[0.2956633356],"iteration":268,"passed_time":176.7670951,"remaining_time":480.3596525},
{"learn":[0.295280674],"iteration":269,"passed_time":177.1868827,"remaining_time":479.0608311},
{"learn":[0.2946391562],"iteration":270,"passed_time":177.8446631,"remaining_time":478.4087062},
{"learn":[0.2935221495],"iteration":271,"passed_time":178.4697668,"remaining_time":477.6690817},
{"learn":[0.292924441],"iteration":272,"passed_time":178.9104026,"remaining_time":476.4390574},
{"learn":[0.2924920731],"iteration":273,"passed_time":179.3983499,"remaining_time":475.3401535},
{"learn":[0.2920015203],"iteration":274,"passed_time":180.0896625,"remaining_time":474.7818376},
{"learn":[0.2913499262],"iteration":275,"passed_time":180.6640614,"remaining_time":473.9158712},
{"learn":[0.2907111271],"iteration":276,"passed_time":181.222711,"remaining_time":473.0109028},
{"learn":[0.2902747796],"iteration":277,"passed_time":181.7559833,"remaining_time":472.0425177},
{"learn":[0.2894220515],"iteration":278,"passed_time":182.271502,"remaining_time":471.0313725},
{"learn":[0.288739779],"iteration":279,"passed_time":182.7556437,"remaining_time":469.9430838},
{"learn":[0.2881231962],"iteration":280,"passed_time":183.4019281,"remaining_time":469.2739725},
{"learn":[0.2875872522],"iteration":281,"passed_time":183.9289765,"remaining_time":468.3014366},
{"learn":[0.2869183191],"iteration":282,"passed_time":184.6608835,"remaining_time":467.8510724},
{"learn":[0.2861464948],"iteration":283,"passed_time":185.1884021,"remaining_time":466.8834362},
{"learn":[0.2853281953,
{"learn":[0.2836719268],"iteration":284,"passed_time":184.4459448,"rem,
{"learn":[0.2847648616],
{"learn":[0.2832136071],"iteration":285,"passed_time":184.9975917,"rem,
{"learn":[0.2841317541],
{"learn":[0.2828670075],"iteration":286,"passed_time":185.6855018,"rem,
{"learn":[0.2836962327],
{"learn":[0.2818065319],"iteration":287,"passed_time":186.3013533,"rem,
{"learn":[0.2832617437],"iteration":288,"passed_time":188.1259279,"remaining_time":462.8288399},
{"learn":[0.2827896224],"iteration":289,"passed_time":188.8298764,"remaining_time":462.3076284},
{"learn":[0.2821871221],"iteration":290,"passed_time":189.4135006,"remaining_time":461.4919997},
{"learn":[0.2816418744],"iteration":291,"passed_time":190.0524962,"remaining_time":460.8122168},
{"learn":[0.281143234],"iteration":292,"passed_time":190.6810364,"remaining_time":460.1074837},
{"learn":[0.280656428],"iteration":293,"passed_time":191.1541752,"remaining_time":459.0300941},
{"learn":[0.279890482],"iteration":294,"passed_time":191.7100544,"remaining_time":458.1545367},
{"learn":[0.2795657705],"iteration":295,"passed_time":192.2992787,"remaining_time":457.3604465},
{"learn":[0.2790586068],"iteration":296,"passed_time":192.9412755,"remaining_time":456.6926487},
{"learn":[0.2786226159,
{"learn":[0.2762658876],"iteration":297,"passed_time":192.3703737,"rem,
{"learn":[0.2779615808],
{"learn":[0.2758184803],"iteration":298,"passed_time":192.9761937,"rem,
{"learn":[0.2775935287],
{"learn":[0.2752689365],"iteration":299,"passed_time":193.6105828,"re,
{"learn":[0.2766398919],,
{"learn":[0.2749821868],"iteration":300,"passed_time":194.2449145,"re,
{"learn":[0.2759875316],,
{"learn":[0.2746231709],"iteration":301,"passed_time":194.8849608,"re,
{"learn":[0.275595268],",
{"learn":[0.2740535235],"iteration":302,"passed_time":195.4597712,"r,
{"learn":[0.2748990164],,
{"learn":[0.2731949714],"iteration":303,"passed_time":196.0781854,"re,
{"learn":[0.2741207467],,
{"learn":[0.2727675386],"iteration":304,"passed_time":196.7964929,"re,
{"learn":[0.2734241672,
{"learn":[0.2718504322],"iteration":305,"passed_time":197.4904493,"rema,
{"learn":[0.2729078972,
{"learn":[0.2713756848],"iteration":306,"passed_time":198.1500412,"rem,
{"learn":[0.2721755927],
{"learn":[0.2705198891],"iteration":307,"passed_time":198.8239136,"rem,
{"learn":[0.2716133804],
{"learn":[0.27001225],"iteration":308,"passed_time":199.3767794,"remai,
{"learn":[0.270993642,
{"learn":[0.2695811168],"iteration":309,"passed_time":200.0281302,"rema,
{"learn":[0.2704045137,
{"learn":[0.2692964453],"iteration":310,"passed_time":200.5149086,"rema,
{"learn":[0.269462558],
{"learn":[0.2689303917],"iteration":311,"passed_time":201.0862039,"rem,
{"learn":[0.269040823,
{"learn":[0.2682914887],"iteration":312,"passed_time":201.6950281,"remai,
{"learn":[0.268519768,
{"learn":[0.2673538954],"iteration":313,"passed_time":202.4520017,"remai,
{"learn":[0.26790422,
{"learn":[0.2666992045],"iteration":314,"passed_time":202.9438001,"remain,
{"learn":[0.2674286,
{"learn":[0.2660945881],"iteration":315,"passed_time":203.567551,"remainin,
{"learn":[0.266956,
{"learn":[0.2657345894],"iteration":316,"passed_time":204.0806123,"remainin,
{"learn":[0.266408,
{"learn":[0.2648380508],"iteration":317,"passed_time":204.88848,"remaining_time":439.4149162},
{"learn":[0.2642350992],"iteration":318,"passed_time":205.5669792,"remaining_time":438.8436139},
{"learn":[0.2634789776],"iteration":319,"passed_time":206.1520671,"remaining_,
{"learn":[0.2651,
{"learn":[0.2630994456],"iteration":320,"passed_time":206.6179496,"remaining_,
{"learn":[0.2644,
{"learn":[0.2622583815],"iteration":321,"passed_time":207.3042554,"remainin,
{"learn":[0.2637,
{"learn":[0.2615984637],"iteration":322,"passed_time":207.8869498,"remaining_,
{"learn":[0.262,
{"learn":[0.2607627857],"iteration":323,"passed_time":208.3698223,"remaining_t,
{"learn":[0.262,
{"learn":[0.2603541164],"iteration":324,"passed_time":208.9165456,"remaining_t,
{"learn":[0.262,
{"learn":[0.2598774965],"iteration":325,"passed_time":209.5019033,"remaining_t,
{"learn":[0.261,
{"learn":[0.2593939601],"iteration":326,"passed_time":210.0329253,"remaining_t,
{"learn":[0.260,
{"learn":[0.2587829023],"iteration":327,"passed_time":210.5302596,"remaining,
{"learn":[0.26041,
{"learn":[0.2582269001],"iteration":328,"passed_time":211.1822703,"remaining,
{"learn":[0.25983,
{"learn":[0.2576934406],"iteration":329,"passed_time":211.7636317,"remaining,
{"learn":[0.25905,
{"learn":[0.25735826],"iteration":330,"passed_time":212.3639184,"remaining_t,
{"learn":[0.258,
{"learn":[0.2566827888],"iteration":331,"passed_time":212.9531075,"remaining_,
{"learn":[0.2579,
{"learn":[0.2562752846],"iteration":332,"passed_time":213.5356026,"remaining_,
{"learn":[0.2574,
{"learn":[0.2557962778],"iteration":333,"passed_time":214.3106472,"remaining_,
{"learn":[0.2569,
{"learn":[0.2552986292],"iteration":334,"passed_time":214.9283168,"remaining,
{"learn":[0.25616,
{"learn":[0.254783302],"iteration":335,"passed_time":215.7798474,"remaining,
{"learn":[0.25553,
{"learn":[0.2544768491],"iteration":336,"passed_time":216.4255492,"remainin,
{"learn":[0.25472,
{"learn":[0.2539135745],"iteration":337,"passed_time":217.0001637,"remaining,
{"learn":[0.25431,
{"learn":[0.2532022547],"iteration":338,"passed_time":217.6195227,"remainin,
{"learn":[0.25400,
{"learn":[0.2527576884],"iteration":339,"passed_time":218.2365028,"remaining,
{"learn":[0.25362,
{"learn":[0.2521510471],"iteration":340,"passed_time":218.9558926,"remaining_time":423.1434992},
{"learn":[0.2513338536],"iteration":341,"passed_time":219.49239,"remainin,
{"learn":[0.252718,
{"learn":[0.2509261459],"iteration":342,"passed_time":220.0974416,"remainin,
{"learn":[0.252037,
{"learn":[0.2500809508],"iteration":343,"passed_time":220.8652307,"remaining_time":421.1848585},
{"learn":[0.249421625],"iteration":344,"passed_time":221.5121237,"remaining_time":420.5520029},
{"learn":[0.2488824079],"iteration":345,"passed_time":222.0487797,"remaining_time":419.7106992},
{"learn":[0.2482480742],"iteration":346,"passed_time":222.6373237,"remaini,
{"learn":[0.2498972,
{"learn":[0.2476285237],"iteration":347,"passed_time":223.2388693,"remain,
{"learn":[0.24930198,
{"learn":[0.2471125431],"iteration":348,"passed_time":223.8384121,"remain,
{"learn":[0.24892256,
{"learn":[0.2467336068],"iteration":349,"passed_time":224.5210965,"remain,
{"learn":[0.24854380,
{"learn":[0.2462799205],"iteration":350,"passed_time":225.3690231,"remaining_time":416.7079657},
{"learn":[0.2457721539],"iteration":351,"passed_time":225.9456945,"remaining_time":415.9454831},
{"learn":[0.2454058482],"iteration":352,"passed_time":226.4351233,"remai,
{"learn":[0.247317839,
{"learn":[0.2449692822],"iteration":353,"passed_time":226.9914643,"rema,
{"learn":[0.2468174164,
{"learn":[0.2446576529],"iteration":354,"passed_time":227.5658251,"rema,
{"learn":[0.2464084923,
{"learn":[0.2443322512],"iteration":355,"passed_time":228.0690594,"rema,
{"learn":[0.245842106],
{"learn":[0.2436375205],"iteration":356,"passed_time":228.6150825,"rem,
{"learn":[0.2453682],"iteration":357,"passed_time":230.4179025,"remaining_time":413.2075234},
{"learn":[0.2451091489],"i,
{"learn":[0.2424129926],"iteration":358,"passed_time":229.9043644,,
{"learn":[0.2445408522],"it,
{"learn":[0.2419456281],"iteration":359,"passed_time":230.5168769,,
{"learn":[0.2439704683],"it,
{"learn":[0.2416689499],"iteration":360,"passed_time":231.1007171,,
{"learn":[0.2433814497],"it,
{"learn":[0.2409660783],"iteration":361,"passed_time":231.7849963,,
{"learn":[0.2429124064],"it,
{"learn":[0.240362629],"iteration":362,"passed_time":232.522753,"r,
{"learn":[0.2424604723],",
{"learn":[0.2400257908],"iteration":363,"passed_time":233.1711385,"r,
{"learn":[0.2419878942],",
{"learn":[0.2394784913],"iteration":364,"passed_time":233.7977751,"r,
{"learn":[0.2417509464],",
{"learn":[0.2390534427],"iteration":365,"passed_time":234.3526155,"remaining_time":405.9550771},
{"learn":[0.2382671774],"iteration":366,"passed_time":234.9316024,"remaining_time":405.2090036},
{"learn":[0.2378465103],"iteration":367,"passed_time":235.5583277,"remaining_time":404.5458236},
{"learn":[0.237432843],"iteration":368,"passed_time":236.0374379,"remaining_time":403.6304155},
{"learn":[0.2371178401],"iteration":369,"passed_time":236.6904787,"remaining_time":403.0135178},
{"learn":[0.2368841169],"iteration":370,"passed_time":237.2147604,"r,
{"learn":[0.2393887196],",
{"learn":[0.2364761813],"iteration":371,"passed_time":237.9743531,",
{"learn":[0.2390487141],"i,
{"learn":[0.2359549594],"iteration":372,"passed_time":238.5162727,,
{"learn":[0.2385173007],"it,
{"learn":[0.2354243451],"iteration":373,"passed_time":239.1154263,,
{"learn":[0.2376739879],"it,
{"learn":[0.2349523609],"iteration":374,"passed_time":239.8227567,"remaining_time":399.7045945},
{"learn":[0.2346870503],"iteration":375,"passed_time":240.3882752,"remaining_time":398.942244},
{"learn":[0.2343117973],"iteration":376,"passed_time":241.1009741,"remaining_time":398.4241561},
{"learn":[0.2339462053],"iteration":377,"passed_time":241.6274651,"remaining_time":397.5986331},
{"learn":[0.2334440419],"iteration":378,"passed_time":242.2179384,"remaining_time":396.8795244},
{"learn":[0.232921737],"iteration":379,"passed_time":242.7897234,"remaining_time":396.1306013},
{"learn":[0.2323354718],"iteration":380,"passed_time":243.3195583,",
{"learn":[0.2343322235],",
{"learn":[0.2319424935],"iteration":381,"passed_time":243.9352876,,
{"learn":[0.2340049858],"it,
{"learn":[0.2314881057],"iteration":382,"passed_time":244.7727774,"remaining_time":394.3206361},
{"learn":[0.2311493024],"iteration":383,"passed_time":245.3865989,
{"learn":[0.2332355681],"ite,
{"learn":[0.2306683669],"iteration":384,"passed_time":246.1207569,"remaining_time":393.1539364},
{"learn":[0.2300840253],"iteration":385,"passed_time":246.7482208,
{"learn":[0.2324749419],"ite,
{"learn":[0.2297310481],"iteration":386,"passed_time":247.3806754,"remaining_time":391.8458761},
{"learn":[0.2293018105],"iteration":387,"passed_time":248.0128331,"remaining_time":391.1954996},
{"learn":[0.2288645123],"iteration":388,"passed_time":248.6152464,"remaining_time":390.4984976},
{"learn":[0.2284490942],"iteration":389,"passed_time":249.3295999,"remaining_time":389.9770665},
{"learn":[0.2282912201],"iteration":390,"passed_time":249.8652495,"remaining_time":389.1763093},
{"learn":[0.2278032068],"iteration":391,"passed_time":250.4388913,"remaining_time":388.4358314},
{"learn":[0.2273469924],"iteration":392,"passed_time":251.0304126,"remaining_time":387.7238179},
{"learn":[0.2270602238],"iteration":393,"passed_time":251.5970779,"remaining_time":386.9741858},
{"learn":[0.2265556358],"iteration":394,"passed_time":252.2026898,"remaining_time":386.2851325},
{"learn":[0.2257874821],"iteration":395,"passed_time":252.7401288,"remaining_time":385.4925197},
{"learn":[0.2254169811],"iteration":396,"passed_time":253.2973173,"remaining_time":384.7311898},
{"learn":[0.2251146269],"iteration":397,"passed_time":253.9639402,"remaining_time":384.1364121},
{"learn":[0.2244296519],"iteration":398,"passed_time":254.6196989,"remaining_time":383.5249099},
{"learn":[0.2239924608],"iteration":399,"passed_time":255.1329996,"remaining_time":382.6994994},
{"learn":[0.2235956344],"iteration":400,"passed_time":255.7575084,"remaining_time":382.0417644},
{"learn":[0.2232746952],"iteration":401,"passed_time":256.4427778,"remaining_time":381.4745799},
{"learn":[0.2227586415],"iteration":402,"passed_time":257.1977271,"remaining_time":381.0100324},
{"learn":[0.2224073802],"iteration":403,"passed_time":257.7792163,"remaining_time":380.2881508},
{"learn":[0.2220889362],"iteration":404,"passed_time":258.4737958,"remaining_time":379.7331074},
{"learn":[0.2215765474],"iteration":405,"passed_time":259.0253339,"remaining_time":378.9680993},
{"learn":[0.2212214811],"iteration":406,"passed_time":259.5317508,"remaining_time":378.1383986},
{"learn":[0.2207587405],"iteration":407,"passed_time":260.2812508,"remaining_time":377.6629913},
{"learn":[0.2204015444],"iteration":408,"passed_time":260.8569419,"remaining_time":376.935092},
{"learn":[0.2199170361],"iteration":409,"passed_time":261.481414,"remaining_time":376.2781324},
{"learn":[0.2195709172],"iteration":410,"passed_time":262.0917772,"remaining_time":375.6011113},
{"learn":[0.2193098498],"iteration":411,"passed_time":262.6489083,"remaining_time":374.8484419},
{"learn":[0.2190800439],"iteration":412,"passed_time":263.2492901,"remaining_time":374.158192},
{"learn":[0.2188401464],"iteration":413,"passed_time":263.8990305,"remaining_time":373.5382413},
{"learn":[0.2184824461],"iteration":414,"passed_time":264.4019439,"remaining_time":372.7111739},
{"learn":[0.2182398384],"iteration":415,"passed_time":264.9470772,"remaining_time":371.9449352},
{"learn":[0.2178494232],"iteration":416,"passed_time":265.6043481,"remaining_time":371.3365346},
{"learn":[0.2174959089],"iteration":417,"passed_time":266.2354812,"remaining_time":370.6915073},
{"learn":[0.2170462902],"iteration":418,"passed_time":266.8211409,"remaining_time":369.9834914},
{"learn":[0.2166817503],"iteration":419,"passed_time":267.5143715,"remaining_time":369.4246083},
{"learn":[0.2162517572],"iteration":420,"passed_time":26,
{"learn":[0.218795451],"iteration":42,
{"learn":[0.2157879065],"iteration":421,"passed_time":,
{"learn":[0.2185975706],"iteration":42,
{"learn":[0.2153400126],"iteration":422,"passed_time":269.3422155,"remaining_time":367.4006107},
{"learn":[0.2149823037],"iteration":423,"passed_time":269.9883971,"remaining_time":366.7766904},
{"learn":[0.2145718939],"iteration":424,"passed_time":270.6424413,"remaining_time":366.1633029},
{"learn":[0.2142505708],"iteration":425,"passed_time":271.1677478,"remaining_time":365.3762611},
{"learn":[0.2137507879],"iteration":426,"passed_time",
{"learn":[0.2166585972],"iteration":427,,
{"learn":[0.2131587444],"iteration":427,"passed_time",
{"learn":[0.2164082311],"iteration":428,,
{"learn":[0.212736163],"iteration":428,"passed_time":,
{"learn":[0.2159707136],"iteration":429,
{"learn":[0.2123226101],"iteration":429,"passed_time":,
{"learn":[0.2154689455],"iteration":43,
{"learn":[0.2118925909],"iteration":430,"passed_time":,
{"learn":[0.2148809566],"iteration":431,
{"learn":[0.2113632017],"iteration":431,"passed_time":274.9320135,"remaining_time":361.4846844},
{"learn":[0.2110581802],"iteration":432,"passed_time":275.6064737,"remaining_time":360.8980845},
{"learn":[0.2108099233],"iteration":433,"passed_time":276.2548561,"remaining_time":360.2770704},
{"learn":[0.2102687031],"iteration":434,"passed_time":276.9250804,"remaining_time":359.6842998},
{"learn":[0.2098918634],"iteration":435,"passed_time":277.5968052,"remaining_time":359.0931149},
{"learn":[0.2095152119],"iteration":436,"passed_time":278.0965672,"remaining_time":358.2800168},
{"learn":[0.2088708941],"iteration":437,"passed_time":278.6699636,"remaining_time":357.56283},
{"learn":[0.2084209433],"iteration":438,"passed_time":279.1988085,"remaining_time":356.7893658},
{"learn":[0.207882948],"iteration":439,"passed_time":279.8468491,"remaining_time":356.1687171},
{"learn":[0.2074920038],"iteration":440,"passed_time":280.5326809,"remaining_time":355.5958472},
{"learn":[0.2070482892],"iteration":441,"passed_time":281.2199202,"remaining_time":355.0242432},
{"learn":[0.2065848206],"iteration":442,"passed_time":281.9661336,"remaining_time":354.5262673},
{"learn":[0.2062833137],"iteration":443,"passed_time":282.5513521,"remaining_time":353.825567},
{"learn":[0.2057254747],"iteration":444,"passed_time":283.1746511,"remaining_time":353.1728795},
{"learn":[0.2051884333],"iteration":445,"passed_time":283.878926,"remaining_time":352.6209081},
{"learn":[0.2047552591],"iteration":446,"passed_time":284.3778226,"remaining_time":351.8141743},
{"learn":[0.2045446164],"iteration":447,"passed_time":284.9609661,"remaining_time":351.1126189},
{"learn":[0.2041230871],"iteration":448,"passed_time":285.6379259,"remaining_time":350.5267198},
{"learn":[0.2039665865],"iteration":449,"passed_time":286.215346,"remaining_time":349.8187563},
{"learn":[0.2037446601],"iteration":450,"passed_time":286.8530845,"remaining_time":349.1847969},
{"learn":[0.2035390989],"iteration":451,"passed_time":287.4411275,"remaining_time":348.4905706},
{"learn":[0.2028861069],"iteration":452,"passed_time":288.0705225,"remaining_time":347.8467457},
{"learn":[0.2026286642],"iteration":453,"passed_time":288.6071177,"remaining_time":347.0913795},
{"learn":[0.2023794086],"iteration":454,"passed_time":289.1442001,"remaining_time":346.3375584},
{"learn":[0.202129616],"iteration":455,"passed_time":289.7219396,"remaining_time":345.6331911},
{"learn":[0.201835503],"iteration":456,"passed_time":290.2781751,"remaining_time":344.9038272},
{"learn":[0.2014453963],"iteration":457,"passed_time":291.1143493,"remaining_time":344.5065007},
{"learn":[0.2012365613],"iteration":458,"passed_time":291.6646369,"remaining_time":343.7703019},
{"learn":[0.2008577183],"iteration":459,"passed_time":292.3103543,"remaining_time":343.1469376},
{"learn":[0.2005462926],"iteration":460,"passed_time":293.0207503,"remaining_time":342.5990985},
{"learn":[0.200155685],"iteration":461,"passed_time":293.6619338,"remaining_time":341.9699576},
{"learn":[0.1996484754],"iteration":462,"passed_time":294.3341486,"remaining_time":341.3767555},
{"learn":[0.1994907435],"iteration":463,"passed_time":294.8265825,"remaining_time":340.575535},
{"learn":[0.1991396952],"iteration":464,"passed_time":295.4456923,"remaining_time":339.9213879},
{"learn":[0.1986476849],"iteration":465,"passed_time":295.9905887,"remaining_time":339.1823484},
{"learn":[0.1982493575],"iteration":466,"passed_time":296.6162857,"remaining_time":338.5363604},
{"learn":[0.1978265243],"iteration":467,"passed_time":297.3053448,"remaining_time":337.962486},
{"learn":[0.1973296648],"iteration":468,"passed_time":297.8911622,"remaining_time":337.2712305},
{"learn":[0.1969311289],"iteration":469,"passed_time":298.6242575,"remaining_time":336.7465031},
{"learn":[0.1966259164],"iteration":470,"passed_time":299.1742377,"remaining_time":336.0152266},
{"learn":[0.1964709394],"iteration":471,"passed_time":299.7456312,"remaining_time":335.3086721},
{"learn":[0.1961901395],"iteration":472,"passed_time":300.3262983,"remaining_time":334.6130216},
{"learn":[0.1957196883],"iteration":473,"passed_time":300.88494,"remaining_time":333.8934144},
{"learn":[0.1954878998],"iteration":474,"passed_time":301.5000878,"remaining_time":333.2369391},
{"learn":[0.1952679797],"iteration":475,"passed_time":302.0231271,"remaining_time":332.4792408},
{"learn":[0.1949484699],"iteration":476,"passed_time":302.6529298,"remaining_time":331.8395856},
{"learn":[0.1945115179],"iteration":477,"passed_time":303.171275,"remaining_time":331.0782543},
{"learn":[0.1943546277],"iteration":478,"passed_time":303.8120812,"remaining_time":330.4511363},
{"learn":[0.1940526918],"iteration":479,"passed_time":304.3249776,"remaining_time":329.6853923},
{"learn":[0.193722129],"iteration":480,"passed_time":305.0719338,"remaining_time":329.1732508},
{"learn":[0.1934903063],"iteration":481,"passed_time":305.7043413,"remaining_time":328.5370307},
{"learn":[0.1931910017],"iteration":482,"passed_time":306.3033371,"remaining_time":327.8650627},
{"learn":[0.1928822742],"iteration":483,"passed_time":306.9329387,"remaining_time":327.2260255},
{"learn":[0.1925210194],"iteration":484,"passed_time":307.5877403,"remaining_time":326.6137861},
{"learn":[0.1919993903],"iteration":485,"passed_time":308.1655826,"remaining_time":325.9199783},
{"learn":[0.1917206161],"iteration":486,"passed_time":308.7812469,"remaining_time":325.266488},
{"learn":[0.1912922885],"iteration":487,"passed_time":309.3308673,"remaining_time":324.5438607},
{"learn":[0.1909607213],"iteration":488,"passed_time":309.7631451,"remaining_time":323.6993193},
{"learn":[0.1905857207],"iteration":489,"passed_time":310.4143484,"remaining_time":323.0843218},
{"learn":[0.1901770149],"iteration":490,"passed_time":311.014539,"remaining_time":322.416294},
{"learn":[0.1898234988],"iteration":491,"passed_time":311.6068231,"remaining_time":321.7403783},
{"learn":[0.1895221066],"iteration":492,"passed_time":312.3243641,"remaining_time":321.1936158},
{"learn":[0.1891808703],"iteration":493,"passed_time":312.889738,"remaining_time":320.4902984},
{"learn":[0.1889385492],"iteration":494,"passed_time":313.4112804,"remaining_time":319.7428214},
{"learn":[0.1885356789],"iteration":495,"passed_time":313.9795349,"remaining_time":319.043721},
{"learn":[0.1881440475],"iteration":496,"passed_time":314.5553832,"remaining_time":318.3528325},
{"learn":[0.1877858884],"iteration":497,"passed_time":315.1873921,"remaining_time":317.7190177},
{"learn":[0.1873678881],"iteration":498,"passed_time":315.6969615,"remaining_time":316.9622799},
{"learn":[0.1867808797],"iteration":499,"passed_time":316.3104589,"remaining_time":316.3104589},
{"learn":[0.1865093484],"iteration":500,"passed_time":316.8681737,"remaining_time":315.6032309},
{"learn":[0.1861778663],"iteration":501,"passed_time":317.316929,"remaining_time":314.7885073},
{"learn":[0.1857452505],"iteration":502,"passed_time":318.060676,"remaining_time":314.2667117},
{"learn":[0.1853910708],"iteration":503,"passed_time":318.6014017,"remaining_time":313.5442365},
{"learn":[0.1851065541],"iteration":504,"passed_time":319.2339775,"remaining_time":312.9125126},
{"learn":[0.1848725936],"iteration":505,"passed_time":319.7518484,"remaining_time":312.1688006},
{"learn":[0.1843520344],"iteration":506,"passed_time":320.3529491,"remaining_time":311.506911},
{"learn":[0.1841446602],"iteration":507,"passed_time":321.0949305,"remaining_time":310.9817043},
{"learn":[0.1837738107],"iteration":508,"passed_time":321.7388457,"remaining_time":310.3610476},
{"learn":[0.1835728846],"iteration":509,"passed_time":322.2072948,"remaining_time":309.5717146},
{"learn":[0.1833055005],"iteration":510,"passed_time":322.7255606,"remaining_time":308.8313095},
{"learn":[0.1830477302],"iteration":511,"passed_time":323.3215247,"remaining_time":308.1658282},
{"learn":[0.1827061951],"iteration":512,"passed_time":323.9315368,"remaining_time":307.513954},
{"learn":[0.1824492118],"iteration":513,"passed_time":324.4087023,"remaining_time":306.7366329},
{"learn":[0.1821998133],"iteration":514,"passed_time":325.0306954,"remaining_time":306.0968685},
{"learn":[0.1818698573],"iteration":515,"passed_time":325.6323698,"remaining_time":305.4381143},
{"learn":[0.1815436934],"iteration":516,"passed_time":326.1975925,"remaining_time":304.7455264},
{"learn":[0.181051927],"iteration":517,"passed_time":326.8204405,"remaining_time":304.1070508},
{"learn":[0.180948074],"iteration":518,"passed_time":327.3983782,"remaining_time":303.4270133},
{"learn":[0.1806902361],"iteration":519,"passed_time":328.052116,"remaining_time":302.8173379},
{"learn":[0.1800883266],"iteration":520,"passed_time":328.7075747,"remaining_time":302.2090754},
{"learn":[0.1797048376],"iteration":521,"passed_time":329.3469582,"remaining_time":301.5859119},
{"learn":[0.1793739592],"iteration":522,"passed_time":329.9219047,"remaining_time":300.9039169},
{"learn":[0.1791423518],"iteration":523,"passed_time":330.4980651,"remaining_time":300.2234332},
{"learn":[0.1787559648],"iteration":524,"passed_time":331.0937771,"remaining_time":299.5610364},
{"learn":[0.1783614121],"iteration":525,"passed_time":331.6988963,"remaining_time":298.9073704},
{"learn":[0.1780287586],"iteration":526,"passed_time":332.3059889,"remaining_time":298.2556599},
{"learn":[0.1776960913],"iteration":527,"passed_time":332.8811191,"remaining_time":297.5755458},
{"learn":[0.1773080953],"iteration":528,"passed_time":333.391979,"remaining_time":296.8386051},
{"learn":[0.176955917],"iteration":529,"passed_time":333.8824748,"remaining_time":296.0844588},
{"learn":[0.1766939414],"iteration":530,"passed_time":334.5572341,"remaining_time":295.4940542},
{"learn":[0.1763761848],"iteration":531,"passed_time":335.0992612,"remaining_time":294.7865682},
{"learn":[0.1761499906],"iteration":532,"passed_time":335.6298795,"remaining_time":294.0697068},
{"learn":[0.1759097408],"iteration":533,"passed_time":336.2984941,"remaining_time":293.4739668},
{"learn":[0.1756824889],"iteration":534,"passed_time":336.9058004,"remaining_time":292.8246677},
{"learn":[0.1752675364],"iteration":535,"passed_time":337.5562597,"remaining_time":292.2128816},
{"learn":[0.1750461483],"iteration":536,"passed_time":338.2356133,"remaining_time":291.625864},
{"learn":[0.1749168091],"iteration":537,"passed_time":338.6808514,"remaining_time":290.8374597},
{"learn":[0.1747069669],"iteration":538,"passed_time":339.252797,"remaining_time":290.1587002},
{"learn":[0.1744290602],"iteration":539,"passed_time":339.94974,"remaining_time":289.5868156},
{"learn":[0.1742291607],"iteration":540,"passed_time":340.5759994,"remaining_time":288.9544986},
{"learn":[0.1739442763],"iteration":541,"passed_time":341.106263,"remaining_time":288.2410857},
{"learn":[0.1735875869],"iteration":542,"passed_time":341.770573,"remaining_time":287.6411636},
{"learn":[0.1733308601],"iteration":543,"passed_time":342.2707788,"remaining_time":286.9034469},
{"learn":[0.1730547762],"iteration":544,"passed_time":342.7940664,"remaining_time":286.185872},
{"learn":[0.1726614775],"iteration":545,"passed_time":343.4292579,"remaining_time":285.5620569},
{"learn":[0.1723819102],"iteration":546,"passed_time":343.9950696,"remaining_time":284.8807432},
{"learn":[0.1720330784],"iteration":547,"passed_time":344.4909197,"remaining_time":284.1421455},
{"learn":[0.1717997869],"iteration":548,"passed_time":345.1335353,"remaining_time":283.524999},
{"learn":[0.1715311827],"iteration":549,"passed_time":345.7200282,"remaining_time":282.8618413},
{"learn":[0.1712001864],"iteration":550,"passed_time":346.3016972,"remaining_time":282.195031},
{"learn":[0.171046516],"iteration":551,"passed_time":346.877437,"remaining_time":281.523717},
{"learn":[0.1708881819],"iteration":552,"passed_time":347.4792622,"remaining_time":280.873834},
{"learn":[0.1706221552],"iteration":553,"passed_time":348.0355032,"remaining_time":280.1874268},
{"learn":[0.170380969],"iteration":554,"passed_time":348.5212036,"remaining_time":279.444929},
{"learn":[0.1701264663],"iteration":555,"passed_time",
{"learn":[0.1707246462],"iteration":556,,
{"learn":[0.1699684875],"iteration":556,"passed_time",
{"learn":[0.1704570767],"iteration":557,
{"learn":[0.1696778012],"iteration":557,"passed_time",
{"learn":[0.1702911928],"iteration":558,,
{"learn":[0.169143408],"iteration":558,"passed_time":,
{"learn":[0.1701410143],"iteration":559,
{"learn":[0.1689856566],"iteration":559,"passed_time":,
{"learn":[0.1698921406],"iteration":560,
{"learn":[0.1686727721],"iteration":560,"passed_time":,
{"learn":[0.1697003442],"iteration":56,
{"learn":[0.1683261533],"iteration":561,"passed_time":,
{"learn":[0.1694589451],"iteration":562,
{"learn":[0.1680742532],"iteration":562,"passed_time":,
{"learn":[0.1690681492],"iteration":563,
{"learn":[0.1676107102],"iteration":563,"passed_time":,
{"learn":[0.168833647],"iteration":564,,
{"learn":[0.1674625676],"iteration":564,"passed_time",
{"learn":[0.168583468],"iteration":565,",
{"learn":[0.1673273965],"iteration":565,"passed_time,
{"learn":[0.1680924892],"iteration":566,",
{"learn":[0.1670026309],"iteration":566,"passed_time,
{"learn":[0.1677186085],"iteration":567,",
{"learn":[0.1668549292],"iteration":567,"passed_time,
{"learn":[0.1675311763],"iteration":568,",
{"learn":[0.1666738615],"iteration":568,"passed_time,
{"learn":[0.167076631],"iteration":569,"p,
{"learn":[0.166261899],"iteration":569,"passed_time,
{"learn":[0.1667478709],"iteration":570,",
{"learn":[0.1661018384],"iteration":570,"passed_time,
{"learn":[0.1664847411],"iteration":571,",
{"learn":[0.1657627741],"iteration":571,"passed_time,
{"learn":[0.1660253832],"iteration":572,",
{"learn":[0.1654327882],"iteration":572,"passed_time,
{"learn":[0.1657080091],"iteration":573,,
{"learn":[0.165249449],"iteration":573,"passed_time":,
{"learn":[0.1655172066],"iteration":574,
{"learn":[0.1650562414],"iteration":574,"passed_time":,
{"learn":[0.1652442347],"iteration":575,"passed_time":362.259128,"remaining_time":266.6629692},
{"learn":[0.1650834106],"iteration":576,,
{"learn":[0.1643685033],"iteration":576,"passed_time",
{"learn":[0.1648158346],"iteration":577,,
{"learn":[0.1640989891],"iteration":577,"passed_time,
{"learn":[0.1645439341],
{"learn":[0.1634,
{"learn":[0.1639317812],"iteration":578,"passed_time,
{"learn":[0.164390207],"iteration":579,"p,
{"learn":[0.1637938402],"iteration":579,"passed_tim,
{"learn":[0.1641206484],"iteration":580,"p,
{"learn":[0.1633252441],"iteration":580,"passed_tim,
{"learn":[0.1638977717],"iteration":581,"p,
{"learn":[0.1631474457],"iteration":581,"passed_tim,
{"learn":[0.1634867312],"iteration":582,"p,
{"learn":[0.16289177],"iteration":582,"passed_time",
{"learn":[0.1631380723],"iteration":583,,
{"learn":[0.162609196],"iteration":583,"passed_time":,
{"learn":[0.1628946572],"iteration":584,
{"learn":[0.1623811452],"iteration":584,"passed_time":,
{"learn":[0.1626874233],"iteration":585,
{"learn":[0.1621026202],"iteration":585,"passed_time,
{"learn":[0.1625551308],"iteration":586,,
{"learn":[0.1616074106],"iteration":586,"passed_time,
{"learn":[0.1623379032],"iteration":587,",
{"learn":[0.1612140595],"iteration":587,"passed_time,
{"learn":[0.1621782259],"iteration":588,,
{"learn":[0.1609889711],"iteration":588,"passed_time",
{"learn":[0.1617757753],"iteration":589,,
{"learn":[0.1608490783],"iteration":589,"passed_time",
{"learn":[0.1615614895],"iteration":590,,
{"learn":[0.1606754084],"iteration":590,"passed_time,
{"learn":[0.1612154802],"iteration":591,",
{"learn":[0.1604720975],"iteration":591,"passed_time,
{"learn":[0.1611050223],"iteration":592,",
{"learn":[0.1601949992],"iteration":592,"passed_time,
{"learn":[0.1606486324],"iteration":593,",
{"learn":[0.1598896233],"iteration":593,"passed_time,
{"learn":[0.160421,
{"learn":[0.15852399,
{"learn":[0.1595650721],"iteration":594,"passed_time,
{"learn":[0.1601125,
{"learn":[0.15831219,
{"learn":[0.1594362984],"iteration":595,"passed_tim,
{"learn":[0.15985075,
{"learn":[0.15796729,
{"learn":[0.1590640072],"iteration":596,"passed_tim,
{"learn":[0.15970435,
{"learn":[0.15774377,
{"learn":[0.1588027324],"iteration":597,"passed_tim,
{"learn":[0.15944598,
{"learn":[0.15732592,
{"learn":[0.1585633556],"iteration":598,"passed_tim,
{"learn":[0.15927949,
{"learn":[0.15709461,
{"learn":[0.1583813594],"iteration":599,"passed_ti,
{"learn":[0.15893834,
{"learn":[0.156833609,
{"learn":[0.1582041823],"iteration":600,"passed_t,
{"learn":[0.15849212,
{"learn":[0.1566513658,
{"learn":[0.1580910967],"iteration":601,"passed_t,
{"learn":[0.1583865,
{"learn":[0.1564276094,
{"learn":[0.157890016],"iteration":602,"passed_ti,
{"learn":[0.15817031,
{"learn":[0.156175868,
{"learn":[0.1577243819],"iteration":603,"passed_ti,
{"learn":[0.15798239,
{"learn":[0.155931592,
{"learn":[0.1574766528],"iteration":604,"passed_ti,
{"learn":[0.1576688,
{"learn":[0.155803221],
{"learn":[0.157288966],"iteration":605,"passed_ti,
{"learn":[0.157484,
{"learn":[0.1555919357],
{"learn":[0.1570605173],"iteration":606,"passed_ti,
{"learn":[0.157113,
{"learn":[0.1551956793],
{"learn":[0.1567211285],"iteration":607,"passed_ti,
{"learn":[0.15685,
{"learn":[0.1547770457],
{"learn":[0.1562431277],"iteration":608,"passed_tim,
{"learn":[0.15667,
{"learn":[0.1544793539],
{"learn":[0.1559600897],"iteration":609,"passed_tim,
{"learn":[0.15643,
{"learn":[0.1542518693,
{"learn":[0.1557601132],"iteration":610,"passed_ti,
{"learn":[0.156226,
{"learn":[0.1539131426],
{"learn":[0.1556270199],"iteration":611,"passed_time":383.7952433,"re,
{"learn":[0.1536692399],,
{"learn":[0.155308447],"iteration":612,"passed_ti,
{"learn":[0.155578,
{"learn":[0.153287376],,
{"learn":[0.1551587007],"iteration":613,"passed_,
{"learn":[0.155198,
{"learn":[0.1531115411],",
{"learn":[0.1549884063],"iteration":614,"passed_,
{"learn":[0.155112,
{"learn":[0.152978398],",
{"learn":[0.1547416189],"iteration":615,"passed_t,
{"learn":[0.15478,
{"learn":[0.1526397177],",
{"learn":[0.1544576199],"iteration":616,"passed,
{"learn":[0.1543533249],"iteration":617,"passe,
{"learn":[0.1541988054],"iteration":617,"passed,
{"learn":[0.1541491781],"iteration":618,"pass,
{"learn":[0.1539202222],"iteration":618,"passed,
{"learn":[0.15387566,
{"learn":[0.1519119462],,
{"learn":[0.1537238047],"iteration":619,"passed,
{"learn":[0.1536734,
{"learn":[0.1517677678],",
{"learn":[0.1535842945],"iteration":620,"passed,
{"learn":[0.1534563,
{"learn":[0.1514766801],",
{"learn":[0.1531524911],"iteration":621,"passed_time":390.0183333,",
{"learn":[0.1512556703],"i,
{"learn":[0.1529475285],"iteration":622,"passed_time":390.8349511,"remaining_time":236.5084696},
{"learn":[0.152699014],"iteration":623,"passed_time":391.5470086,"remaining_time":235.9321719},
{"learn":[0.1524029409],"iteration":624,"passed_time":392.2687719,"remaining_time":235.3612631},
{"learn":[0.1522547528],"iteration":625,"passed_time":393.0170502,"remaining_time":234.8057137},
{"learn":[0.1518851286],"iteration":626,"passed_time":393.9148832,"remaining_time":234.338519},
{"learn":[0.1513422747],"iteration":627,"passed_time":394.6416726,"remaining_time":233.7686341},
{"learn":[0.151073435],"iteration":628,"passed_time":395.3375799,"remaining_time":233.1800352},
{"learn":[0.1507122844],"iteration":629,"passed_time":395.928323,"remaining_time":232.5293325},
{"learn":[0.1503805479],"iteration":630,"passed_time":396.6697771,"remaining_time":231.9669537},
{"learn":[0.1502510104],"iteration":631,"passed_time":397.3543487,"remaining_time":231.3708866},
{"learn":[0.1500440916],"iteration":632,"passed_time":398.0447376,"remaining_time":230.7779126},
{"learn":[0.1498556906],"iteration":633,"passed_time":398.5617265,"remaining_time":230.0845298},
{"learn":[0.149641518],"iteration":634,"passed_time":399.1762118,"remaining_time":229.4477438},
{"learn":[0.1494480585],"iteration":635,"passed_time":399.7763095,"remaining_time":228.8027935},
{"learn":[0.149303242],"iteration":636,"passed_time":400.4727192,"remaining_time":228.2128682},
{"learn":[0.1491298817],"iteration":637,"passed_time":401.0641742,"remaining_time":227.5630581},
{"learn":[0.1488254917],"iteration":638,"passed_time":401.6874963,"remaining_time":226.9314337},
{"learn":[0.1486477639],"iteration":639,"passed_time":402.2641065,"remaining_time":226.2735599},
{"learn":[0.1484976241],"iteration":640,"passed_time":402.9525061,"remaining_time":225.6785487},
{"learn":[0.1483328826],"iteration":641,"passed_time":403.617114,"remaining_time":225.0699794},
{"learn":[0.1481805571],"iteration":642,"passed_time":404.3338839,"remaining_time":224.4901968},
{"learn":[0.1478586663],"iteration":643,"passed_time":405.0575932,"remaining_time":223.9138248},
{"learn":[0.1475637298],"iteration":644,"passed_time":405.7661768,"remaining_time":223.3286709},
{"learn":[0.147366949],"iteration":645,"passed_time":406.2738422,"remaining_time":222.6330343},
{"learn":[0.1469406339],"iteration":646,"passed_time":406.8933011,"remaining_time":221.9989726},
{"learn":[0.1465546575],"iteration":647,"passed_time":407.5474284,"remaining_time":221.3837883},
{"learn":[0.1461628479],"iteration":648,"passed_time":408.1964391,"remaining_time":220.7657167},
{"learn":[0.1458451591],"iteration":649,"passed_time":408.7435431,"remaining_time":220.0926771},
{"learn":[0.1455428688],"iteration":650,"passed_time":409.2621569,"remaining_time":219.4047508},
{"learn":[0.1453154715],"iteration":651,"passed_time":409.8598511,"remaining_time":218.7595524},
{"learn":[0.1450668052],"iteration":652,"passed_time":410.4919005,"remaining_time":218.1327557},
{"learn":[0.1449106313],"iteration":653,"passed_time":410.9737564,"remaining_time":217.4264827},
{"learn":[0.1447481554],"iteration":654,"passed_time":411.5848708,"remaining_time":216.7889778},
{"learn":[0.1444322865],"iteration":655,"passed_time":412.1903676,"remaining_time":216.1486074},
{"learn":[0.1441422385],"iteration":656,"passed_time":412.9288732,"remaining_time":215.5777831},
{"learn":[0.1438230614],"iteration":657,"passed_time":413.516204,"remaining_time":214.927875},
{"learn":[0.1436990096],"iteration":658,"passed_time":414.2590011,"remaining_time":214.358603},
{"learn":[0.1435223742],"iteration":659,"passed_time":414.7950878,"remaining_time":213.682318},
{"learn":[0.1433290871],"iteration":660,"passed_time":415.4537082,"remaining_time":213.0692997},
{"learn":[0.1431142178],"iteration":661,"passed_time":416.0509376,"remaining_time":212.4247989},
{"learn":[0.1426635285],"iteration":662,"passed_time":416.7202923,"remaining_time":211.8171018},
{"learn":[0.1423252314],"iteration":663,"passed_time":417.3391407,"remaining_time":211.1836616},
{"learn":[0.1421132229],"iteration":664,"passed_time":417.9471095,"remaining_time":210.5447845},
{"learn":[0.1420275881],"iteration":665,"passed_time":418.5150104,"remaining_time":209.8859061},
{"learn":[0.1418313997],"iteration":666,"passed_time":419.1947479,"remaining_time":209.283135},
{"learn":[0.1416725988],"iteration":667,"passed_time":419.8735589,"remaining_time":208.679673},
{"learn":[0.1413981607],"iteration":668,"passed_time":420.4877754,"remaining_time":208.0440264},
{"learn":[0.1412467106],"iteration":669,"passed_time":421.1086233,"remaining_time":207.41171},
{"learn":[0.1408601105],"iteration":670,"passed_time":421.7721766,"remaining_time":206.8003668},
{"learn":[0.1406348446],"iteration":671,"passed_time":422.3186191,"remaining_time":206.1317069},
{"learn":[0.1402913742],"iteration":672,"passed_time":422.9050633,"remaining_time":205.4828465},
{"learn":[0.1401310012],"iteration":673,"passed_time":423.5167978,"remaining_time":204.8464037},
{"learn":[0.1399773573],"iteration":674,"passed_time":424.2019543,"remaining_time":204.2453854},
{"learn":[0.1397368196],"iteration":675,"passed_time":424.7257587,"remaining_time":203.5667837},
{"learn":[0.1396036071],"iteration":676,"passed_time":425.4467343,"remaining_time":202.9827107},
{"learn":[0.1394362896],"iteration":677,"passed_time":426.0286279,"remaining_time":202.3321802},
{"learn":[0.1391858393],"iteration":678,"passed_time":426.5824264,"remaining_time":201.6685698},
{"learn":[0.1389924145],"iteration":679,"passed_time":427.251943,"remaining_time":201.0597379},
{"learn":[0.1387656921],"iteration":680,"passed_time":427.8909855,"remaining_time":200.4364528},
{"learn":[0.1385565326],"iteration":681,"passed_time":428.4248572,"remaining_time":199.764083},
{"learn":[0.1382617751],"iteration":682,"passed_time":428.9780936,"remaining_time":199.1011064},
{"learn":[0.1381379459],"iteration":683,"passed_time":429.6037601,"remaining_time":198.4719126},
{"learn":[0.1379008971],"iteration":684,"passed_time":430.1770158,"remaining_time":197.8186277},
{"learn":[0.1377544176],"iteration":685,"passed_time":430.7256987,"remaining_time":197.1543286},
{"learn":[0.1373569923],"iteration":686,"passed_time":431.311963,"remaining_time":196.5074882},
{"learn":[0.1371692271],"iteration":687,"passed_time":431.9214456,"remaining_time":195.8713533},
{"learn":[0.1368589024],"iteration":688,"passed_time":432.4595594,"remaining_time":195.2030812},
{"learn":[0.1366864369],"iteration":689,"passed_time":433.0463772,"remaining_time":194.557068},
{"learn":[0.1364043735],"iteration":690,"passed_time":433.6812477,"remaining_time":193.9327142},
{"learn":[0.136270992],"iteration":691,"passed_time":434.2769076,"remaining_time":193.2908779},
{"learn":[0.1360880111],"iteration":692,"passed_time":434.907512,"remaining_time":192.6646554},
{"learn":[0.1357992018],"iteration":693,"passed_time":435.7024555,"remaining_time":192.110881},
{"learn":[0.1356299324],"iteration":694,"passed_time":436.3020744,"remaining_time":191.4706945},
{"learn":[0.1354219204],"iteration":695,"passed_time":436.9526332,"remaining_time":190.8528743},
{"learn":[0.1352291998],"iteration":696,"passed_time":437.603026,"remaining_time":190.2348879},
{"learn":[0.1350305566],"iteration":697,"passed_time":438.0873756,"remaining_time":189.5449677},
{"learn":[0.1348507729],"iteration":698,"passed_time":438.7515474,"remaining_time":188.9330697},
{"learn":[0.1345877638],"iteration":699,"passed_time":439.1879908,"remaining_time":188.2234246},
{"learn":[0.1343386514],"iteration":700,"passed_time":439.8276727,"remaining_time":187.601247},
{"learn":[0.1341584567],"iteration":701,"passed_time":440.5580604,"remaining_time":187.0175242},
{"learn":[0.1339197512],"iteration":702,"passed_time":441.0279584,"remaining_time":186.3233338},
{"learn":[0.1337293565],"iteration":703,"passed_time":441.7460972,"remaining_time":185.7341545},
{"learn":[0.1334903022],"iteration":704,"passed_time":442.2182873,"remaining_time":185.0416947},
{"learn":[0.1331988951],"iteration":705,"passed_time":442.7935889,"remaining_time":184.3927977},
{"learn":[0.1330172237],"iteration":706,"passed_time":443.3624452,"remaining_time":183.7414377},
{"learn":[0.1326468207],"iteration":707,"passed_time":443.9682493,"remaining_time":183.1055491},
{"learn":[0.1324333813],"iteration":708,"passed_time":444.5514297,"remaining_time":182.4604598},
{"learn":[0.1321933387],"iteration":709,"passed_time":445.1949725,"remaining_time":181.8402},
{"learn":[0.132006207],"iteration":710,"passed_time":445.765719,"remaining_time":181.1902852},
{"learn":[0.1318467474],"iteration":711,"passed_time":446.3471256,"remaining_time":180.5449047},
{"learn":[0.1316422418],"iteration":712,"passed_time":446.9473092,"remaining_time":179.9072619},
{"learn":[0.1314589323],"iteration":713,"passed_time":447.5668722,"remaining_time":179.2774866},
{"learn":[0.1313271605],"iteration":714,"passed_time":448.0947294,"remaining_time":178.6111858},
{"learn":[0.1309756936],"iteration":715,"passed_time":448.6333451,"remaining_time":177.9495391},
{"learn":[0.1308383639],"iteration":716,"passed_time":449.2227659,"remaining_time":177.3082884},
{"learn":[0.1306317113],"iteration":717,"passed_time":449.9534522,"remaining_time":176.7226651},
{"learn":[0.1305113027],"iteration":718,"passed_time":450.5400093,"remaining_time":176.0803096},
{"learn":[0.1302380428],"iteration":719,"passed_time":451.0628554,"remaining_time":175.4133327},
{"learn":[0.1301338307],"iteration":720,"passed_time":451.6966937,"remaining_time":174.7897053},
{"learn":[0.1299401169],"iteration":721,"passed_time":452.2843845,"remaining_time":174.148281},
{"learn":[0.129678538],"iteration":722,"passed_time":452.9485337,"remaining_time":173.5362985},
{"learn":[0.1295236812],"iteration":723,"passed_time":453.5445911,"remaining_time":172.8982143},
{"learn":[0.129330001],"iteration":724,"passed_time":454.2107249,"remaining_time":172.2868267},
{"learn":[0.1290568913],"iteration":725,"passed_time":454.6861122,"remaining_time":171.6032985},
{"learn":[0.1289556276],"iteration":726,"passed_time":455.3238709,"remaining_time":170.981316},
{"learn":[0.1286700595],"iteration":727,"passed_time":455.9647116,"remaining_time":170.3604417},
{"learn":[0.1285128376],"iteration":728,"passed_time":456.5335554,"remaining_time":169.7127483},
{"learn":[0.1283321837],"iteration":729,"passed_time":457.1129462,"remaining_time":169.0691719},
{"learn":[0.1282090877],"iteration":730,"passed_time":457.8282272,"remaining_time":168.4757772},
{"learn":[0.1280338355],"iteration":731,"passed_time":458.3715308,"remaining_time":167.819085},
{"learn":[0.127761785],"iteration":732,"passed_time":459.0273667,"remaining_time":167.2036929},
{"learn":[0.1274340633],"iteration":733,"passed_time":459.5907193,"remaining_time":166.5546748},
{"learn":[0.1271280595],"iteration":734,"passed_time":460.1902567,"remaining_time":165.9189361},
{"learn":[0.1270099207],"iteration":735,"passed_time":460.6515807,"remaining_time":165.2337192},
{"learn":[0.1267569349],"iteration":736,"passed_time":461.285678,"remaining_time":164.6107643},
{"learn":[0.1264848128],"iteration":737,"passed_time":461.9357376,"remaining_time":163.9934461},
{"learn":[0.126247733],"iteration":738,"passed_time":462.6422114,"remaining_time":163.3959637},
{"learn":[0.1260657195],"iteration":739,"passed_time":463.3030198,"remaining_time":162.7821421},
{"learn":[0.1258237248],"iteration":740,"passed_time":463.7955021,"remaining_time":162.109359},
{"learn":[0.1256779205],"iteration":741,"passed_time":464.3034717,"remaining_time":161.442447},
{"learn":[0.1255220169],"iteration":742,"passed_time":464.8033825,"remaining_time":160.7731754},
{"learn":[0.1253771568],"iteration":743,"passed_time":465.43521,"remaining_time":160.1497497},
{"learn":[0.1252460942],"iteration":744,"passed_time":465.961128,"remaining_time":159.4900505},
{"learn":[0.1249474091],"iteration":745,"passed_time":466.5577481,"remaining_time":158.8547829},
{"learn":[0.1246432361],"iteration":746,"passed_time":467.1888413,"remaining_time":158.2312943},
{"learn":[0.1244209018],"iteration":747,"passed_time":467.8189834,"remaining_time":157.607465},
{"learn":[0.1241801877],"iteration":748,"passed_time":468.3363237,"remaining_time":156.9458174},
{"learn":[0.1240156521],"iteration":749,"passed_time":468.8357474,"remaining_time":156.2785825},
{"learn":[0.1238591613],"iteration":750,"passed_time":469.4387973,"remaining_time":155.6461525},
{"learn":[0.1236878862],"iteration":751,"passed_time":470.0891266,"remaining_time":155.0293928},
{"learn":[0.1234611021],"iteration":752,"passed_time":470.674702,"remaining_time":154.3913033},
{"learn":[0.1232762479],"iteration":753,"passed_time":471.3307573,"remaining_time":153.7763479},
{"learn":[0.1229475377],"iteration":754,"passed_time":471.9231142,"remaining_time":153.1406132},
{"learn":[0.1227075657],"iteration":755,"passed_time":472.4487213,"remaining_time":152.4834497},
{"learn":[0.1225270123],"iteration":756,"passed_time":473.1320034,"remaining_time":151.8772481},
{"learn":[0.122269717],"iteration":757,"passed_time":473.8050554,"remaining_time":151.2675771},
{"learn":[0.1220668887],"iteration":758,"passed_time":474.2994446,"remaining_time":150.6010094},
{"learn":[0.1219589146],"iteration":759,"passed_time":474.7652729,"remaining_time":149.9258757},
{"learn":[0.1217578109],"iteration":760,"passed_time":475.3691472,"remaining_time":149.2946467},
{"learn":[0.1214809283],"iteration":761,"passed_time":475.9004033,"remaining_time":148.6408084},
{"learn":[0.1211687943],"iteration":762,"passed_time":476.394363,"remaining_time":147.9757065},
{"learn":[0.1209488802],"iteration":763,"passed_time":477.0195284,"remaining_time":147.3515821},
{"learn":[0.1208257109],"iteration":764,"passed_time":477.551529,"remaining_time":146.6988357},
{"learn":[0.1206434624],"iteration":765,"passed_time":478.122783,"remaining_time":146.0583958},
{"learn":[0.1204307194],"iteration":766,"passed_time":478.8612527,"remaining_time":145.4689334},
{"learn":[0.1201427834],"iteration":767,"passed_time":479.5452427,"remaining_time":144.8626254},
{"learn":[0.1199248868],"iteration":768,"passed_time":480.0993706,"remaining_time":144.2171061},
{"learn":[0.119791834],"iteration":769,"passed_time":480.7527736,"remaining_time":143.6014778},
{"learn":[0.1195999118],"iteration":770,"passed_time":481.2040341,"remaining_time":142.9257118},
{"learn":[0.1194711184],"iteration":771,"passed_time":481.7874843,"remaining_time":142.2895679},
{"learn":[0.119277682],"iteration":772,"passed_time":482.3970551,"remaining_time":141.6612309},
{"learn":[0.1190428648],"iteration":773,"passed_time":482.950252,"remaining_time":141.0164819},
{"learn":[0.1188855974],"iteration":774,"passed_time":483.5168389,"remaining_time":140.3758565},
{"learn":[0.1187196386],"iteration":775,"passed_time":484.1626999,"remaining_time":139.7583051},
{"learn":[0.118522652],"iteration":776,"passed_time":484.6934749,"remaining_time":139.1076511},
{"learn":[0.1183777583],"iteration":777,"passed_time":485.3493116,"remaining_time":138.4929912},
{"learn":[0.1181864847],"iteration":778,"passed_time":485.9786338,"remaining_time":137.8707036},
{"learn":[0.1179636651],"iteration":779,"passed_time":486.6038917,"remaining_time":137.2472515},
{"learn":[0.1177740526],"iteration":780,"passed_time":487.2598553,"remaining_time":136.632405},
{"learn":[0.1176410614],"iteration":781,"passed_time":487.7594592,"remaining_time":135.9738646},
{"learn":[0.1174951237],"iteration":782,"passed_time":488.2707272,"remaining_time":135.3189627},
{"learn":[0.1173053001],"iteration":783,"passed_time":488.8573161,"remaining_time":134.6851789},
{"learn":[0.1171404867],"iteration":784,"passed_time":489.436238,"remaining_time":134.0494155},
{"learn":[0.1169094557],"iteration":785,"passed_time":490.027952,"remaining_time":133.4172796},
{"learn":[0.1167484335],"iteration":786,"passed_time":490.6571324,"remaining_time":132.7953865},
{"learn":[0.1165950042],"iteration":787,"passed_time":491.2917108,"remaining_time":132.1749273},
{"learn":[0.1164974411],"iteration":788,"passed_time":491.9804437,"remaining_time":131.5689146},
{"learn":[0.1163663046],"iteration":789,"passed_time":492.63733,"remaining_time":130.954227},
{"learn":[0.1162071674],"iteration":790,"passed_time":493.2248538,"remaining_time":130.3211055},
{"learn":[0.1160218904],"iteration":791,"passed_time":493.8070639,"remaining_time":129.6867037},
{"learn":[0.1158485677],"iteration":792,"passed_time":494.3236351,"remaining_time":129.0352994},
{"learn":[0.1156143664],"iteration":793,"passed_time":495.0587299,"remaining_time":128.4409299},
{"learn":[0.115415981],"iteration":794,"passed_time":495.6046775,"remaining_time":127.7974326},
{"learn":[0.1152498494],"iteration":795,"passed_time":496.2055577,"remaining_time":127.1682585},
{"learn":[0.1150966506],"iteration":796,"passed_time":496.8423394,"remaining_time":126.5482998},
{"learn":[0.1148628367],"iteration":797,"passed_time":497.4586369,"remaining_time":125.9231136},
{"learn":[0.1147054257],"iteration":798,"passed_time":498.1086655,"remaining_time":125.3064353},
{"learn":[0.1145227039],"iteration":799,"passed_time":498.6992809,"remaining_time":124.6748202},
{"learn":[0.1143255937],"iteration":800,"passed_time":499.3722621,"remaining_time":124.0637705},
{"learn":[0.1142071725],"iteration":801,"passed_time":499.8661487,"remaining_time":123.4083509},
{"learn":[0.1138869776],"iteration":802,"passed_time":500.5387311,"remaining_time":122.7971731},
{"learn":[0.1137333766],"iteration":803,"passed_time":501.0828103,"remaining_time":122.154516},
{"learn":[0.1136091692],"iteration":804,"passed_time":501.5538663,"remaining_time":121.4944148},
{"learn":[0.1134040198],"iteration":805,"passed_time":502.1858166,"remaining_time":120.8735092},
{"learn":[0.1132766938],"iteration":806,"passed_time":502.854692,"remaining_time":120.2614071},
{"learn":[0.1130893136],"iteration":807,"passed_time":503.5493455,"remaining_time":119.65529},
{"learn":[0.1128610699],"iteration":808,"passed_time":504.1807334,"remaining_time":119.0340174},
{"learn":[0.1127325784],"iteration":809,"passed_time":504.7994873,"remaining_time":118.4097563},
{"learn":[0.112453551],"iteration":810,"passed_time":505.3196002,"remaining_time":117.7625209},
{"learn":[0.1123051],"iteration":811,"passed_time":505.8240749,"remaining_time":117.1119779},
{"learn":[0.1122361723],"iteration":812,"passed_time":506.4358037,"remaining_time":116.4864641},
{"learn":[0.1120957734],"iteration":813,"passed_time":507.0150639,"remaining_time":115.853565},
{"learn":[0.1119274283],"iteration":814,"passed_time":507.7329563,"remaining_time":115.2522662},
{"learn":[0.1117596103],"iteration":815,"passed_time":508.3184929,"remaining_time":114.6208366},
{"learn":[0.1116289933],"iteration":816,"passed_time":509.0558133,"remaining_time":114.0235175},
{"learn":[0.1114040041],"iteration":817,"passed_time":509.7397434,"remaining_time":113.4139771},
{"learn":[0.1112644378],"iteration":818,"passed_time":510.3159809,"remaining_time":112.7804549},
{"learn":[0.1110828465],"iteration":819,"passed_time":510.9474117,"remaining_time":112.1591879},
{"learn":[0.110935935],"iteration":820,"passed_time":511.5769445,"remaining_time":111.5374824},
{"learn":[0.1107596291],"iteration":821,"passed_time":512.1598548,"remaining_time":110.905662},
{"learn":[0.110641297],"iteration":822,"passed_time":512.7493275,"remaining_time":110.2753718},
{"learn":[0.1104912386],"iteration":823,"passed_time":513.4464499,"remaining_time":109.6681738},
{"learn":[0.1103319511],"iteration":824,"passed_time":514.0932385,"remaining_time":109.0500809},
{"learn":[0.1102085115],"iteration":825,"passed_time":514.7290154,"remaining_time":108.4295989},
{"learn":[0.1100444592],"iteration":826,"passed_time":515.268684,"remaining_time":107.788975},
{"learn":[0.1098395297],"iteration":827,"passed_time":515.9204163,"remaining_time":107.1718739},
{"learn":[0.1096651185],"iteration":828,"passed_time":516.5869509,"remaining_time":106.5577426},
{"learn":[0.1094485369],"iteration":829,"passed_time":517.3700187,"remaining_time":105.9673532},
{"learn":[0.1092761852],"iteration":830,"passed_time":517.9154297,"remaining_time":105.328168},
{"learn":[0.1091110244],"iteration":831,"passed_time":518.6096256,"remaining_time":104.7192513},
{"learn":[0.1089602733],"iteration":832,"passed_time":519.3050614,"remaining_time":104.1103785},
{"learn":[0.1088249893],"iteration":833,"passed_time":519.9058161,"remaining_time":103.4824526},
{"learn":[0.1086884319],"iteration":834,"passed_time":520.4179386,"remaining_time":102.8370777},
{"learn":[0.1086116432],"iteration":835,"passed_time":521.0362969,"remaining_time":102.2128621},
{"learn":[0.1084420389],"iteration":836,"passed_time":521.7339988,"remaining_time":101.6041121},
{"learn":[0.1083529162],"iteration":837,"passed_time":522.4276812,"remaining_time":100.9943727},
{"learn":[0.1081420418],"iteration":838,"passed_time":523.0816134,"remaining_time":100.3768054},
{"learn":[0.1079492158],"iteration":839,"passed_time":524.001984,"remaining_time":99.80990172},
{"learn":[0.1078687051],"iteration":840,"passed_time":524.7530675,"remaining_time":99.21015189},
{"learn":[0.1077135816],"iteration":841,"passed_time":525.4646685,"remaining_time":98.60263376},
{"learn":[0.107566645],"iteration":842,"passed_time":526.0919964,"remaining_time":97.97917372},
{"learn":[0.1074358054],"iteration":843,"passed_time":527.1165259,"remaining_time":97.4291209},
{"learn":[0.107290433],"iteration":844,"passed_time":527.7302699,"remaining_time":96.80259389},
{"learn":[0.107082834],"iteration":845,"passed_time":528.4698365,"remaining_time":96.19900097},
{"learn":[0.1069789213],"iteration":846,"passed_time":529.1640794,"remaining_time":95.58689982},
{"learn":[0.1067942653],"iteration":847,"passed_time":529.8739779,"remaining_time":94.97741113},
{"learn":[0.1065617359],"iteration":848,"passed_time":530.4970616,"remaining_time":94.35224536},
{"learn":[0.106312411],"iteration":849,"passed_time":531.2402448,"remaining_time":93.74827849},
{"learn":[0.1062084689],"iteration":850,"passed_time":531.8574286,"remaining_time":93.12192346},
{"learn":[0.1061045554],"iteration":851,"passed_time":532.5727231,"remaining_time":92.51263265},
{"learn":[0.1059183062],"iteration":852,"passed_time":533.2807344,"remaining_time":91.90183817},
{"learn":[0.1056991832],"iteration":853,"passed_time":533.9542218,"remaining_time":91.28491379},
{"learn":[0.1054830114],"iteration":854,"passed_time":534.5410516,"remaining_time":90.6531608},
{"learn":[0.1052176079],"iteration":855,"passed_time":535.0928649,"remaining_time":90.01562212},
{"learn":[0.1050730947],"iteration":856,"passed_time":535.7559176,"remaining_time":89.39684506},
{"learn":[0.104902026],"iteration":857,"passed_time":536.3401576,"remaining_time":88.76492119},
{"learn":[0.1048360174],"iteration":858,"passed_time":537.0037462,"remaining_time":88.14613296},
{"learn":[0.1046803685],"iteration":859,"passed_time":537.8019232,"remaining_time":87.5491503},
{"learn":[0.1044689817],"iteration":860,"passed_time":538.4147016,"remaining_time":86.92176947},
{"learn":[0.1043147479],"iteration":861,"passed_time":539.1436843,"remaining_time":86.31302603},
{"learn":[0.1040814479],"iteration":862,"passed_time":539.8036238,"remaining_time":85.69304341},
{"learn":[0.1039701136],"iteration":863,"passed_time":540.3754336,"remaining_time":85.05909602},
{"learn":[0.1037303078],"iteration":864,"passed_time":541.1665333,"remaining_time":84.45951676},
{"learn":[0.1035855717],"iteration":865,"passed_time":541.848987,"remaining_time":83.84268389},
{"learn":[0.1034541669],"iteration":866,"passed_time":542.7866224,"remaining_time":83.26484519},
{"learn":[0.1033990464],"iteration":867,"passed_time":543.4843548,"remaining_time":82.64969451},
{"learn":[0.1032367237],"iteration":868,"passed_time":544.1555254,"remaining_time":82.03034962},
{"learn":[0.1030805687],"iteration":869,"passed_time":544.7802854,"remaining_time":81.40395069},
{"learn":[0.1029392046],"iteration":870,"passed_time":545.4128247,"remaining_time":80.77870767},
{"learn":[0.102780013],"iteration":871,"passed_time":546.1119378,"remaining_time":80.16322023},
{"learn":[0.1025768145],"iteration":872,"passed_time":546.8841494,"remaining_time":79.55817523},
{"learn":[0.1023491524],"iteration":873,"passed_time":547.5907989,"remaining_time":78.94329595},
{"learn":[0.1021520156],"iteration":874,"passed_time":548.2909075,"remaining_time":78.3272725},
{"learn":[0.1020118759],"iteration":875,"passed_time":548.8538686,"remaining_time":77.69164349},
{"learn":[0.1018315536],"iteration":876,"passed_time":549.5441491,"remaining_time":77.07403687},
{"learn":[0.101717422],"iteration":877,"passed_time":550.4880481,"remaining_time":76.49150554},
{"learn":[0.1015891914],"iteration":878,"passed_time":551.3727005,"remaining_time":75.89999631},
{"learn":[0.1014354802],"iteration":879,"passed_time":552.1641593,"remaining_time":75.29511263},
{"learn":[0.1012052045],"iteration":880,"passed_time":552.8536782,"remaining_time":74.67603598},
{"learn":[0.1010264918],"iteration":881,"passed_time":553.5981223,"remaining_time":74.06414788},
{"learn":[0.1008884758],"iteration":882,"passed_time":554.269211,"remaining_time":73.44223973},
{"learn":[0.1007607204],"iteration":883,"passed_time":555.1125699,"remaining_time":72.84282592},
{"learn":[0.1006877654],"iteration":884,"passed_time":555.7909421,"remaining_time":72.22142186},
{"learn":[0.1004567846],"iteration":885,"passed_time":556.4788208,"remaining_time":71.60111238},
{"learn":[0.1003424993],"iteration":886,"passed_time":557.105834,"remaining_time":70.97289655},
{"learn":[0.1001511641],"iteration":887,"passed_time":558.1273032,"remaining_time":70.39443464},
{"learn":[0.1000085114],"iteration":888,"passed_time":558.5879347,"remaining_time":69.74495022},
{"learn":[0.09986701703],"iteration":889,"passed_time":559.3247916,"remaining_time":69.13003042},
{"learn":[0.09974806959],"iteration":890,"passed_time":559.9945134,"remaining_time":68.50662397},
{"learn":[0.09967209604],"iteration":891,"passed_time":560.6709271,"remaining_time":67.88392391},
{"learn":[0.09954749056],"iteration":892,"passed_time":561.3981388,"remaining_time":67.2671902},
{"learn":[0.0993686388],"iteration":893,"passed_time":562.1038518,"remaining_time":66.64766029},
{"learn":[0.09920068363],"iteration":894,"passed_time":562.7896711,"remaining_time":66.02560388},
{"learn":[0.09906646342],"iteration":895,"passed_time":563.6355599,"remaining_time":65.42198463},
{"learn":[0.0989780015],"iteration":896,"passed_time":564.4961804,"remaining_time":64.81951681},
{"learn":[0.09880177796],"iteration":897,"passed_time":565.4374555,"remaining_time":64.22563526},
{"learn":[0.09870415905],"iteration":898,"passed_time":566.108369,"remaining_time":63.60060652},
{"learn":[0.09860574818],"iteration":899,"passed_time":566.8403633,"remaining_time":62.98226259},
{"learn":[0.09849102282],"iteration":900,"passed_time":567.5877346,"remaining_time":62.36535596},
{"learn":[0.09839209323],"iteration":901,"passed_time":568.28996,"remaining_time":61.74325507},
{"learn":[0.09829341836],"iteration":902,"passed_time":568.9261685,"remaining_time":61.11388521},
{"learn":[0.09818024384],"iteration":903,"passed_time":569.6868883,"remaining_time":60.49772265},
{"learn":[0.09806727828],"iteration":904,"passed_time":570.5965906,"remaining_time":59.89687968},
{"learn":[0.0979753316],"iteration":905,"passed_time":571.4246392,"remaining_time":59.2868831},
{"learn":[0.09779339409],"iteration":906,"passed_time":572.2797107,"remaining_time":58.67917651,,
{"learn":[0.09761484463],"iteration":907,"passed_time":573.0448244,"remaining_time":58.0618104},
{"learn":[0.09748855127],"iteration":908,"passed_time":573.7893533,"remaining_time":57.44205847,,
{"learn":[0.09735862594],"iteration":909,"passed_time":574.4583511,"remaining_time":56.8145622},
{"learn":[0.09716955645],"iteration":910,"passed_time":575.3063532,"remaining_time":56.2044626},
{"learn":[0.09701639548],"iteration":911,"passed_time":576.2334149,"remaining_time":55.60146986},
{"learn":[0.09688142599],"iteration":912,"passed_time":577.083669,"remaining_time":54.9904482},
{"learn":[0.09675353606],"iteration":913,"passed_time":577.9291575,"remaining_time":54.37845465},
{"learn":[0.09663047276],"iteration":914,"passed_time":578.6445214,"remaining_time":53.75386265},
{"learn":[0.09652198567],"iteration":915,"passed_time":579.2978496,"remaining_time":53.12338359},
{"learn":[0.09639713614],"iteration":916,"passed_time":580.2152188,"remaining_time":52.51675372},
{"learn":[0.09627099668],"iteration":917,"passed_time":581.1381554,"remaining_time":51.90994417},
{"learn":[0.0962033045],"iteration":918,"passed_time":582.0272741,"remaining_time":51.29946594},
{"learn":[0.09607367519],"iteration":919,"passed_time":582.6391377,"remaining_time":50.66427284},
{"learn":[0.09596297134],"iteration":920,"passed_time":583.3262031,"remaining_time":50.03558094},
{"learn":[0.09582060173],"iteration":921,"passed_time":584.1003653,"remaining_time":49.41413069},
{"learn":[0.09566417423],"iteration":922,"passed_time":584.9682803,"remaining_time":48.80017073},
{"learn":[0.09548341002],"iteration":923,"passed_time":586.0664876,"remaining_time":48.20460288},
{"learn":[0.09529717075],"iteration":924,"passed_time":587.0693369,"remaining_time":47.60021651},
{"learn":[0.09521912579],"iteration":925,"passed_time":588.0032984,"remaining_time":46.98946445},
{"learn":[0.09509824708],"iteration":926,"passed_time":588.9752465,"remaining_time":46.38100646},
{"learn":[0.09497223677],"iteration":927,"passed_time":589.6659714,"remaining_time":45.74994605},
{"learn":[0.09477285203],"iteration":928,"passed_time":590.4558024,"remaining_time":45.12633151},
{"learn":[0.09463759148],"iteration":929,"passed_time":591.1507938,"remaining_time":44.49522104},
{"learn":[0.09451145202],"iteration":930,"passed_time":591.9662925,"remaining_time":43.8729046},
{"learn":[0.0944097692],"iteration":931,"passed_time":592.7138312,"remaining_time":43.24521515},
{"learn":[0.09435070998],"iteration":932,"passed_time":593.5168152,"remaining_time":42.62125039},
{"learn":[0.09423021277],"iteration":933,"passed_time":594.4831916,"remaining_time":42.00844823},
{"learn":[0.09407103445],"iteration":934,"passed_time":595.2613906,"remaining_time":41.3818079},
{"learn":[0.0939478369],"iteration":935,"passed_time":595.9174195,"remaining_time":40.74649022},
{"learn":[0.09375748189],"iteration":936,"passed_time":596.6974825,"remaining_time":40.11946787},
{"learn":[0.09361600002],"iteration":937,"passed_time":597.7069923,"remaining_time":39.5072852},
{"learn":[0.09344410588],"iteration":938,"passed_time":598.5006789,"remaining_time":38.88023579},
{"learn":[0.09331175653],"iteration":939,"passed_time":599.1697698,"remaining_time":38.24487892},
{"learn":[0.09322304593],"iteration":940,"passed_time":600.1256968,"remaining_time":37.62743476},
{"learn":[0.09301280155],"iteration":941,"passed_time":601.0272597,"remaining_time":37.0059247},
{"learn":[0.09296637068],"iteration":942,"passed_time":601.8469999,"remaining_time":36.37887486},
{"learn":[0.09281630349],"iteration":943,"passed_time":602.6268143,"remaining_time":35.74904831},
{"learn":[0.09270852323],"iteration":944,"passed_time":603.3456182,"remaining_time":35.11535344},
{"learn":[0.09260610741],"iteration":945,"passed_time":604.0330394,"remaining_time":34.47968724},
{"learn":[0.09249993603],"iteration":946,"passed_time":604.9684529,"remaining_time":33.85779092},
{"learn":[0.09235874158],"iteration":947,"passed_time":605.7856334,"remaining_time":33.22874782},
{"learn":[0.09225594272],"iteration":948,"passed_time":606.509202,"remaining_time":32.59427745},
{"learn":[0.09211107526],"iteration":949,"passed_time":607.3001451,"remaining_time":31.96316553},
{"learn":[0.09183849682],"iteration":950,"passed_time":608.2874519,"remaining_time":31.34183506},
{"learn":[0.09177283308],"iteration":951,"passed_time":609.1789488,"remaining_time":30.71490498},
{"learn":[0.09164571898],"iteration":952,"passed_time":609.9451413,"remaining_time":30.08123992},
{"learn":[0.09151632248],"iteration":953,"passed_time":610.5568066,"remaining_time":29.43984602},
{"learn":[0.09137393516],"iteration":954,"passed_time":611.4439341,"remaining_time":28.81149428},
{"learn":[0.09124035102],"iteration":955,"passed_time":612.0928688,"remaining_time":28.17163831},
{"learn":[0.09118275968],"iteration":956,"passed_time":612.7818075,"remaining_time":27.53356084},
{"learn":[0.09108597714],"iteration":957,"passed_time":613.7118432,"remaining_time":26.9059472},
{"learn":[0.09097916549],"iteration":958,"passed_time":614.5972484,"remaining_time":26.27579477},
{"learn":[0.09090016369],"iteration":959,"passed_time":615.449284,"remaining_time":25.64372017},
{"learn":[0.09080091666],"iteration":960,"passed_time":616.3357197,"remaining_time":25.01258384},
{"learn":[0.09068405597],"iteration":961,"passed_time":617.1485897,"remaining_time":24.37801082},
{"learn":[0.0904660026],"iteration":962,"passed_time":617.8680263,"remaining_time":23.73947765},
{"learn":[0.09032492597],"iteration":963,"passed_time":618.4682632,"remaining_time":23.09632518},
{"learn":[0.09018687281],"iteration":964,"passed_time":619.1961036,"remaining_time":22.45788977},
{"learn":[0.09010752146],"iteration":965,"passed_time":619.8635604,"remaining_time":21.81714395},
{"learn":[0.08996162245],"iteration":966,"passed_time":620.727861,"remaining_time":21.1830604},
{"learn":[0.08985314207],"iteration":967,"passed_time":621.2398133,"remaining_time":20.53685333},
{"learn":[0.08963255781],"iteration":968,"passed_time":622.0819803,"remaining_time":19.9014875},
{"learn":[0.08955607374],"iteration":969,"passed_time":622.8660714,"remaining_time":19.26389911},
{"learn":[0.08945861878],"iteration":970,"passed_time":623.8387934,"remaining_time":18.63164265},
{"learn":[0.08937081775],"iteration":971,"passed_time":624.6590696,"remaining_time":17.99429419},
{"learn":[0.08922695378],"iteration":972,"passed_time":625.451882,"remaining_time":17.35580762},
{"learn":[0.08906441122],"iteration":973,"passed_time":626.3071222,"remaining_time":16.71867061},
{"learn":[0.08892152377],"iteration":974,"passed_time":626.9905273,"remaining_time":16.07668019},
{"learn":[0.08882252723],"iteration":975,"passed_time":627.7132372,"remaining_time":15.43557141},
{"learn":[0.08863189496],"iteration":976,"passed_time":628.2844383,"remaining_time":14.79072885},
{"learn":[0.08853330117],"iteration":977,"passed_time":629.4061372,"remaining_time":14.15842026},
{"learn":[0.08845956883],"iteration":978,"passed_time":630.1266913,"remaining_time":13.51650717},
{"learn":[0.08840316558],"iteration":979,"passed_time":630.7973467,"remaining_time":12.87341524},
{"learn":[0.08826800983],"iteration":980,"passed_time":631.5469687,"remaining_time":12.23179654},
{"learn":[0.08812032731],"iteration":981,"passed_time":632.1684401,"remaining_time":11.58760888},
{"learn":[0.08787473599],"iteration":982,"passed_time":632.9032698,"remaining_time":10.94542786},
{"learn":[0.08769403303],"iteration":983,"passed_time":633.657483,"remaining_time":10.30337371},
{"learn":[0.08755257727],"iteration":984,"passed_time":634.5068093,"remaining_time":9.662540242},
{"learn":[0.08750759603],"iteration":985,"passed_time":635.2233406,"remaining_time":9.019398345},
{"learn":[0.08741847897],"iteration":986,"passed_time":635.8521142,"remaining_time":8.374951859},
{"learn":[0.08732087699],"iteration":987,"passed_time":636.4911436,"remaining_time":7.730661663},
{"learn":[0.0872421747],"iteration":988,"passed_time":637.2649973,"remaining_time":7.087881669},
{"learn":[0.08705739407],"iteration":989,"passed_time":638.1839351,"remaining_time":6.446302375},
{"learn":[0.08699301614],"iteration":990,"passed_,
{"learn":[0.0870218074],"iteration":991,"pas,
{"learn":[0.08684073216],"iteration":991,"passed_time":639.9329225,"remaining_time":5.160749375},
{"learn":[0.0866709918],"iteration":992,"passed_time":640.9393801,"remaining_time":4.518203082},
{"learn":[0.08656929828],"iteration":993,"passed_time":641.512438,"remaining_time":3.872308479},
{"learn":[0.0863647297],"iteration":994,"passed_time":642.733725,"remaining_time":3.229817713},
{"learn":[0.08626177318],"iteration":995,"passed_time":643.6725638,"remaining_time":2.585030377},
{"learn":[0.08616773559],"iteration":996,"passed_time":644.3673729,"remaining_time":1.938918875},
{"learn":[0.08602452461],"iteration":997,"passed_time":645.3252807,"remaining_time":1.293237035},
{"learn":[0.08590605729],"iteration":998,"passed_time":646.0052529,"remaining_time":0.6466519048},
{"learn":[0.08575897386],"iteration":999,"passed_time":646.6442755,"remaining_time":0}
]}.2816834,"remaining_time":0}
]}